{
	"type":"minecraft:chest",
	"pools":[
		{
			"rolls": 1,
			"entries":[
				{
					"type":"item",
					"name":"tardis:space_helm"
				},
				{
					"type":"item",
					"name":"tardis:space_chest"
				},
				{
					"type":"item",
					"name":"tardis:space_legs"
				},
				{
					"type":"item",
					"name":"tardis:space_boots"
				}
			]
		},
		{
			"rolls": 2,
			"functions":[
				{
					"function":"minecraft:set_count",
					"count":{
						"min": 1,
						"max": 4
					}
				}
			],
			"entries":[
				{
					"type":"item",
					"name":"tardis:circuits",
					"weight": 10
				},
				{
					"type":"item",
					"name":"minecraft:iron_ingot",
					"weight": 33
				},
				{
					"type":"item",
					"name":"minecraft:gold_ingot",
					"weight": 20
				},
				{
					"type":"item",
					"name":"minecraft:redstone",
					"weight": 20
				},
				{
					"type":"item",
					"name":"tardis:xion_crystal",
					"weight": 33
				}
			]
		},
		{
			"rolls": 4,
			"functions":[
				{
					"function":"minecraft:set_count",
					"count":{
						"min": 1,
						"max": 4
					}
				}
			],
			"entries":[
				{
		          "type": "minecraft:item",
		          "weight" : 4,
		          "functions": [
		            {
		              "function": "minecraft:set_count",
		              "count": {
		                  "min": 1.0,
		                  "max": 2.0,
		                  "type": "minecraft:uniform"
		              }
		            }
		          ],
		          "name": "tardis:tungsten"
		        },
		        {
		          "type": "minecraft:item",
		          "weight" : 3,
		          "functions": [
		            {
		              "function": "minecraft:set_count",
		              "count": {
		                  "min": 1.0,
		                  "max": 2.0,
		                  "type": "minecraft:uniform"
		              }
		            }
		          ],
		          "name": "tardis:alabaster_wall"
		        },
		        {
		          "type": "minecraft:item",
		          "weight" : 4,
		          "functions": [
		            {
		              "function": "minecraft:set_count",
		              "count": {
		                  "min": 1.0,
		                  "max": 5.0,
		                  "type": "minecraft:uniform"
		              }
		            }
		          ],
		          "name": "tardis:moon_base_glass"
		        },
		        {
		          "type": "minecraft:item",
		          "weight" : 3,
		          "functions": [
		            {
		              "function": "minecraft:set_count",
		              "count": {
		                  "min": 1.0,
		                  "max": 3.0,
		                  "type": "minecraft:uniform"
		              }
		            }
		          ],
		          "name": "tardis:regolith_sand"
		        }
			]
		}
	]
}