[
  {
    "block": {
      "Properties": {
        "west": "true",
        "up": "true",
        "south": "false",
        "north": "true",
        "east": "false",
        "down": "false"
      },
      "Name": "minecraft:brown_mushroom_block"
    },
    "x": -2,
    "y": 6,
    "z": -3
  },
  {
    "block": {
      "Properties": {
        "west": "false",
        "up": "true",
        "south": "false",
        "north": "true",
        "east": "false",
        "down": "false"
      },
      "Name": "minecraft:brown_mushroom_block"
    },
    "x": -1,
    "y": 6,
    "z": -3
  },
  {
    "block": {
      "Properties": {
        "west": "false",
        "up": "true",
        "south": "false",
        "north": "true",
        "east": "false",
        "down": "false"
      },
      "Name": "minecraft:brown_mushroom_block"
    },
    "x": 0,
    "y": 6,
    "z": -3
  },
  {
    "block": {
      "Properties": {
        "west": "false",
        "up": "true",
        "south": "false",
        "north": "true",
        "east": "false",
        "down": "false"
      },
      "Name": "minecraft:brown_mushroom_block"
    },
    "x": 1,
    "y": 6,
    "z": -3
  },
  {
    "block": {
      "Properties": {
        "west": "false",
        "up": "true",
        "south": "false",
        "north": "true",
        "east": "true",
        "down": "false"
      },
      "Name": "minecraft:brown_mushroom_block"
    },
    "x": 2,
    "y": 6,
    "z": -3
  },
  {
    "block": {
      "Properties": {
        "west": "true",
        "up": "true",
        "south": "false",
        "north": "true",
        "east": "false",
        "down": "false"
      },
      "Name": "minecraft:brown_mushroom_block"
    },
    "x": -3,
    "y": 6,
    "z": -2
  },
  {
    "block": {
      "Properties": {
        "west": "false",
        "up": "true",
        "south": "false",
        "north": "false",
        "east": "false",
        "down": "false"
      },
      "Name": "minecraft:brown_mushroom_block"
    },
    "x": -2,
    "y": 6,
    "z": -2
  },
  {
    "block": {
      "Properties": {
        "west": "false",
        "up": "true",
        "south": "false",
        "north": "false",
        "east": "false",
        "down": "false"
      },
      "Name": "minecraft:brown_mushroom_block"
    },
    "x": -1,
    "y": 6,
    "z": -2
  },
  {
    "block": {
      "Properties": {
        "west": "false",
        "up": "true",
        "south": "false",
        "north": "false",
        "east": "false",
        "down": "false"
      },
      "Name": "minecraft:brown_mushroom_block"
    },
    "x": 0,
    "y": 6,
    "z": -2
  },
  {
    "block": {
      "Properties": {
        "west": "false",
        "up": "true",
        "south": "false",
        "north": "false",
        "east": "false",
        "down": "false"
      },
      "Name": "minecraft:brown_mushroom_block"
    },
    "x": 1,
    "y": 6,
    "z": -2
  },
  {
    "block": {
      "Properties": {
        "west": "false",
        "up": "true",
        "south": "false",
        "north": "false",
        "east": "false",
        "down": "false"
      },
      "Name": "minecraft:brown_mushroom_block"
    },
    "x": 2,
    "y": 6,
    "z": -2
  },
  {
    "block": {
      "Properties": {
        "west": "false",
        "up": "true",
        "south": "false",
        "north": "true",
        "east": "true",
        "down": "false"
      },
      "Name": "minecraft:brown_mushroom_block"
    },
    "x": 3,
    "y": 6,
    "z": -2
  },
  {
    "block": {
      "Properties": {
        "west": "true",
        "up": "true",
        "south": "false",
        "north": "false",
        "east": "false",
        "down": "false"
      },
      "Name": "minecraft:brown_mushroom_block"
    },
    "x": -3,
    "y": 6,
    "z": -1
  },
  {
    "block": {
      "Properties": {
        "west": "false",
        "up": "true",
        "south": "false",
        "north": "false",
        "east": "false",
        "down": "false"
      },
      "Name": "minecraft:brown_mushroom_block"
    },
    "x": -2,
    "y": 6,
    "z": -1
  },
  {
    "block": {
      "Properties": {
        "west": "false",
        "up": "true",
        "south": "false",
        "north": "false",
        "east": "false",
        "down": "false"
      },
      "Name": "minecraft:brown_mushroom_block"
    },
    "x": -1,
    "y": 6,
    "z": -1
  },
  {
    "block": {
      "Properties": {
        "west": "false",
        "up": "true",
        "south": "false",
        "north": "false",
        "east": "false",
        "down": "false"
      },
      "Name": "minecraft:brown_mushroom_block"
    },
    "x": 0,
    "y": 6,
    "z": -1
  },
  {
    "block": {
      "Properties": {
        "west": "false",
        "up": "true",
        "south": "false",
        "north": "false",
        "east": "false",
        "down": "false"
      },
      "Name": "minecraft:brown_mushroom_block"
    },
    "x": 1,
    "y": 6,
    "z": -1
  },
  {
    "block": {
      "Properties": {
        "west": "false",
        "up": "true",
        "south": "false",
        "north": "false",
        "east": "false",
        "down": "false"
      },
      "Name": "minecraft:brown_mushroom_block"
    },
    "x": 2,
    "y": 6,
    "z": -1
  },
  {
    "block": {
      "Properties": {
        "west": "false",
        "up": "true",
        "south": "false",
        "north": "false",
        "east": "true",
        "down": "false"
      },
      "Name": "minecraft:brown_mushroom_block"
    },
    "x": 3,
    "y": 6,
    "z": -1
  },
  {
    "block": {
      "Properties": {
        "west": "true",
        "up": "false",
        "south": "true",
        "north": "true",
        "east": "true",
        "down": "false"
      },
      "Name": "minecraft:mushroom_stem"
    },
    "x": 0,
    "y": 1,
    "z": 0
  },
  {
    "block": {
      "Properties": {
        "west": "true",
        "up": "false",
        "south": "true",
        "north": "true",
        "east": "true",
        "down": "false"
      },
      "Name": "minecraft:mushroom_stem"
    },
    "x": 0,
    "y": 2,
    "z": 0
  },
  {
    "block": {
      "Properties": {
        "west": "true",
        "up": "false",
        "south": "true",
        "north": "true",
        "east": "true",
        "down": "false"
      },
      "Name": "minecraft:mushroom_stem"
    },
    "x": 0,
    "y": 3,
    "z": 0
  },
  {
    "block": {
      "Properties": {
        "west": "true",
        "up": "false",
        "south": "true",
        "north": "true",
        "east": "true",
        "down": "false"
      },
      "Name": "minecraft:mushroom_stem"
    },
    "x": 0,
    "y": 4,
    "z": 0
  },
  {
    "block": {
      "Properties": {
        "west": "true",
        "up": "false",
        "south": "true",
        "north": "true",
        "east": "true",
        "down": "false"
      },
      "Name": "minecraft:mushroom_stem"
    },
    "x": 0,
    "y": 5,
    "z": 0
  },
  {
    "block": {
      "Properties": {
        "west": "true",
        "up": "true",
        "south": "false",
        "north": "false",
        "east": "false",
        "down": "false"
      },
      "Name": "minecraft:brown_mushroom_block"
    },
    "x": -3,
    "y": 6,
    "z": 0
  },
  {
    "block": {
      "Properties": {
        "west": "false",
        "up": "true",
        "south": "false",
        "north": "false",
        "east": "false",
        "down": "false"
      },
      "Name": "minecraft:brown_mushroom_block"
    },
    "x": -2,
    "y": 6,
    "z": 0
  },
  {
    "block": {
      "Properties": {
        "west": "false",
        "up": "true",
        "south": "false",
        "north": "false",
        "east": "false",
        "down": "false"
      },
      "Name": "minecraft:brown_mushroom_block"
    },
    "x": -1,
    "y": 6,
    "z": 0
  },
  {
    "block": {
      "Properties": {
        "west": "false",
        "up": "true",
        "south": "false",
        "north": "false",
        "east": "false",
        "down": "false"
      },
      "Name": "minecraft:brown_mushroom_block"
    },
    "x": 0,
    "y": 6,
    "z": 0
  },
  {
    "block": {
      "Properties": {
        "west": "false",
        "up": "true",
        "south": "false",
        "north": "false",
        "east": "false",
        "down": "false"
      },
      "Name": "minecraft:brown_mushroom_block"
    },
    "x": 1,
    "y": 6,
    "z": 0
  },
  {
    "block": {
      "Properties": {
        "west": "false",
        "up": "true",
        "south": "false",
        "north": "false",
        "east": "false",
        "down": "false"
      },
      "Name": "minecraft:brown_mushroom_block"
    },
    "x": 2,
    "y": 6,
    "z": 0
  },
  {
    "block": {
      "Properties": {
        "west": "false",
        "up": "true",
        "south": "false",
        "north": "false",
        "east": "true",
        "down": "false"
      },
      "Name": "minecraft:brown_mushroom_block"
    },
    "x": 3,
    "y": 6,
    "z": 0
  },
  {
    "block": {
      "Properties": {
        "west": "true",
        "up": "true",
        "south": "false",
        "north": "false",
        "east": "false",
        "down": "false"
      },
      "Name": "minecraft:brown_mushroom_block"
    },
    "x": -3,
    "y": 6,
    "z": 1
  },
  {
    "block": {
      "Properties": {
        "west": "false",
        "up": "true",
        "south": "false",
        "north": "false",
        "east": "false",
        "down": "false"
      },
      "Name": "minecraft:brown_mushroom_block"
    },
    "x": -2,
    "y": 6,
    "z": 1
  },
  {
    "block": {
      "Properties": {
        "west": "false",
        "up": "true",
        "south": "false",
        "north": "false",
        "east": "false",
        "down": "false"
      },
      "Name": "minecraft:brown_mushroom_block"
    },
    "x": -1,
    "y": 6,
    "z": 1
  },
  {
    "block": {
      "Properties": {
        "west": "false",
        "up": "true",
        "south": "false",
        "north": "false",
        "east": "false",
        "down": "false"
      },
      "Name": "minecraft:brown_mushroom_block"
    },
    "x": 0,
    "y": 6,
    "z": 1
  },
  {
    "block": {
      "Properties": {
        "west": "false",
        "up": "true",
        "south": "false",
        "north": "false",
        "east": "false",
        "down": "false"
      },
      "Name": "minecraft:brown_mushroom_block"
    },
    "x": 1,
    "y": 6,
    "z": 1
  },
  {
    "block": {
      "Properties": {
        "west": "false",
        "up": "true",
        "south": "false",
        "north": "false",
        "east": "false",
        "down": "false"
      },
      "Name": "minecraft:brown_mushroom_block"
    },
    "x": 2,
    "y": 6,
    "z": 1
  },
  {
    "block": {
      "Properties": {
        "west": "false",
        "up": "true",
        "south": "false",
        "north": "false",
        "east": "true",
        "down": "false"
      },
      "Name": "minecraft:brown_mushroom_block"
    },
    "x": 3,
    "y": 6,
    "z": 1
  },
  {
    "block": {
      "Properties": {
        "west": "true",
        "up": "true",
        "south": "false",
        "north": "false",
        "east": "false",
        "down": "false"
      },
      "Name": "minecraft:brown_mushroom_block"
    },
    "x": -3,
    "y": 6,
    "z": 2
  },
  {
    "block": {
      "Properties": {
        "west": "false",
        "up": "true",
        "south": "false",
        "north": "false",
        "east": "false",
        "down": "false"
      },
      "Name": "minecraft:brown_mushroom_block"
    },
    "x": -2,
    "y": 6,
    "z": 2
  },
  {
    "block": {
      "Properties": {
        "west": "false",
        "up": "true",
        "south": "false",
        "north": "false",
        "east": "false",
        "down": "false"
      },
      "Name": "minecraft:brown_mushroom_block"
    },
    "x": -1,
    "y": 6,
    "z": 2
  },
  {
    "block": {
      "Properties": {
        "west": "false",
        "up": "true",
        "south": "false",
        "north": "false",
        "east": "false",
        "down": "false"
      },
      "Name": "minecraft:brown_mushroom_block"
    },
    "x": 0,
    "y": 6,
    "z": 2
  },
  {
    "block": {
      "Properties": {
        "west": "false",
        "up": "true",
        "south": "false",
        "north": "false",
        "east": "false",
        "down": "false"
      },
      "Name": "minecraft:brown_mushroom_block"
    },
    "x": 1,
    "y": 6,
    "z": 2
  },
  {
    "block": {
      "Properties": {
        "west": "false",
        "up": "true",
        "south": "false",
        "north": "false",
        "east": "false",
        "down": "false"
      },
      "Name": "minecraft:brown_mushroom_block"
    },
    "x": 2,
    "y": 6,
    "z": 2
  },
  {
    "block": {
      "Properties": {
        "west": "false",
        "up": "true",
        "south": "true",
        "north": "false",
        "east": "true",
        "down": "false"
      },
      "Name": "minecraft:brown_mushroom_block"
    },
    "x": 3,
    "y": 6,
    "z": 2
  },
  {
    "block": {
      "Properties": {
        "west": "false",
        "up": "true",
        "south": "true",
        "north": "false",
        "east": "false",
        "down": "false"
      },
      "Name": "minecraft:brown_mushroom_block"
    },
    "x": -2,
    "y": 6,
    "z": 3
  },
  {
    "block": {
      "Properties": {
        "west": "false",
        "up": "true",
        "south": "true",
        "north": "false",
        "east": "false",
        "down": "false"
      },
      "Name": "minecraft:brown_mushroom_block"
    },
    "x": -1,
    "y": 6,
    "z": 3
  },
  {
    "block": {
      "Properties": {
        "west": "false",
        "up": "true",
        "south": "true",
        "north": "false",
        "east": "false",
        "down": "false"
      },
      "Name": "minecraft:brown_mushroom_block"
    },
    "x": 0,
    "y": 6,
    "z": 3
  },
  {
    "block": {
      "Properties": {
        "west": "false",
        "up": "true",
        "south": "true",
        "north": "false",
        "east": "false",
        "down": "false"
      },
      "Name": "minecraft:brown_mushroom_block"
    },
    "x": 1,
    "y": 6,
    "z": 3
  },
  {
    "block": {
      "Properties": {
        "west": "false",
        "up": "true",
        "south": "true",
        "north": "false",
        "east": "true",
        "down": "false"
      },
      "Name": "minecraft:brown_mushroom_block"
    },
    "x": 2,
    "y": 6,
    "z": 3
  }
]