{
    "parent": "block/slab",
    "textures": {
        "bottom": "tardis:block/alabaster/alabaster",
        "top": "tardis:block/alabaster/alabaster",
        "side": "tardis:block/alabaster/alabaster"
    }
}
