{
	"credit": "Made with Blockbench",
	"textures": {
		"1": "minecraft:block/sea_lantern",
		"2": "tardis:block/oxygen_sealer",
		"particle": "tardis:block/oxygen_sealer"
	},
	"elements": [
		{
			"from": [6, 3.25, 6],
			"to": [10, 4.25, 10],
			"rotation": {"angle": 0, "axis": "y", "origin": [8, 9.25, 8]},
			"faces": {
				"north": {"uv": [1, 1, 15, 5], "texture": "#2"},
				"east": {"uv": [1, 1, 15, 5], "texture": "#2"},
				"south": {"uv": [1, 1, 15, 5], "texture": "#2"},
				"west": {"uv": [1, 1, 15, 5], "texture": "#2"},
				"up": {"uv": [2, 2, 14, 14], "texture": "#2"},
				"down": {"uv": [2, 2, 14, 14], "texture": "#2"}
			}
		},
		{
			"from": [6, 4.5, 6],
			"to": [10, 5.5, 10],
			"rotation": {"angle": 0, "axis": "y", "origin": [8, 10.5, 8]},
			"faces": {
				"north": {"uv": [1, 1, 15, 5], "texture": "#2"},
				"east": {"uv": [1, 1, 15, 5], "texture": "#2"},
				"south": {"uv": [1, 1, 15, 5], "texture": "#2"},
				"west": {"uv": [1, 1, 15, 5], "texture": "#2"},
				"up": {"uv": [2, 2, 14, 14], "texture": "#2"},
				"down": {"uv": [2, 2, 14, 14], "texture": "#2"}
			}
		},
		{
			"from": [6.25, 3, 6.25],
			"to": [7.75, 11, 7.75],
			"rotation": {"angle": 0, "axis": "y", "origin": [8, 7, 8]},
			"faces": {
				"north": {"uv": [6, 1, 10, 15], "texture": "#1"},
				"east": {"uv": [6, 1, 10, 15], "texture": "#1"},
				"south": {"uv": [6, 1, 10, 15], "texture": "#1"},
				"west": {"uv": [6, 1, 10, 15], "texture": "#1"},
				"up": {"uv": [1, 1, 15, 15], "texture": "#1"},
				"down": {"uv": [0, 0, 1, 1], "texture": "#1"}
			}
		},
		{
			"from": [8.25, 3, 6.25],
			"to": [9.75, 11, 7.75],
			"rotation": {"angle": 0, "axis": "y", "origin": [10, 7, 8]},
			"faces": {
				"north": {"uv": [6, 1, 10, 15], "texture": "#1"},
				"east": {"uv": [6, 1, 10, 15], "texture": "#1"},
				"south": {"uv": [6, 1, 10, 15], "texture": "#1"},
				"west": {"uv": [6, 1, 10, 15], "texture": "#1"},
				"up": {"uv": [1, 1, 15, 15], "texture": "#1"},
				"down": {"uv": [0, 0, 1, 1], "texture": "#1"}
			}
		},
		{
			"from": [8.25, 3, 8.25],
			"to": [9.75, 11, 9.75],
			"rotation": {"angle": 0, "axis": "y", "origin": [10, 7, 10]},
			"faces": {
				"north": {"uv": [6, 1, 10, 15], "texture": "#1"},
				"east": {"uv": [6, 1, 10, 15], "texture": "#1"},
				"south": {"uv": [6, 1, 10, 15], "texture": "#1"},
				"west": {"uv": [6, 1, 10, 15], "texture": "#1"},
				"up": {"uv": [1, 1, 15, 15], "texture": "#1"},
				"down": {"uv": [0, 0, 1, 1], "texture": "#1"}
			}
		},
		{
			"from": [6.25, 3, 8.25],
			"to": [7.75, 11, 9.75],
			"rotation": {"angle": 0, "axis": "y", "origin": [8, 7, 10]},
			"faces": {
				"north": {"uv": [6, 1, 10, 15], "texture": "#1"},
				"east": {"uv": [6, 1, 10, 15], "texture": "#1"},
				"south": {"uv": [6, 1, 10, 15], "texture": "#1"},
				"west": {"uv": [6, 1, 10, 15], "texture": "#1"},
				"up": {"uv": [1, 1, 15, 15], "texture": "#1"},
				"down": {"uv": [0, 0, 1, 1], "texture": "#1"}
			}
		},
		{
			"from": [5.875, 0, 5.875],
			"to": [10.125, 3, 10.125],
			"faces": {
				"north": {"uv": [1, 2, 15, 15], "texture": "#2"},
				"east": {"uv": [1, 2, 15, 15], "texture": "#2"},
				"south": {"uv": [1, 2, 15, 15], "texture": "#2"},
				"west": {"uv": [1, 2, 15, 15], "texture": "#2"},
				"up": {"uv": [2, 2, 14, 14], "texture": "#2"},
				"down": {"uv": [2, 2, 14, 14], "texture": "#2"}
			}
		},
		{
			"from": [5.875, 11, 5.875],
			"to": [10.125, 12, 10.125],
			"rotation": {"angle": 0, "axis": "y", "origin": [8, 19, 8]},
			"faces": {
				"north": {"uv": [1, 1, 15, 5], "texture": "#2"},
				"east": {"uv": [1, 1, 15, 5], "texture": "#2"},
				"south": {"uv": [1, 1, 15, 5], "texture": "#2"},
				"west": {"uv": [1, 1, 15, 5], "texture": "#2"},
				"up": {"uv": [2, 2, 14, 14], "texture": "#2"},
				"down": {"uv": [2, 2, 14, 14], "texture": "#2"}
			}
		}
	],
	"display": {
		"thirdperson_righthand": {
			"translation": [0, 2.75, 0],
			"scale": [0.5, 0.5, 0.5]
		},
		"thirdperson_lefthand": {
			"translation": [0, 2.75, 0],
			"scale": [0.5, 0.5, 0.5]
		},
		"firstperson_righthand": {
			"translation": [0, 3.75, 0],
			"scale": [0.75, 0.75, 0.75]
		},
		"firstperson_lefthand": {
			"translation": [0, 3.75, 0],
			"scale": [0.75, 0.75, 0.75]
		},
		"ground": {
			"scale": [0.5, 0.5, 0.5]
		},
		"gui": {
			"rotation": [30, 135, 0],
			"translation": [0, 1.75, 0]
		},
		"fixed": {
			"translation": [0, 2, 0]
		}
	},
	"groups": [
		{
			"name": "group",
			"origin": [8, 8, 8],
			"children": [0, 1, 2, 3, 4, 5, 6, 7]
		}
	]
}