{
	"parent": "block/cube_bottom_top",
    "textures": {
        "side": "tardis:block/technology/tungsten_blue_runner_lights",
        "top":"tardis:block/technology/tungsten",
        "bottom":"tardis:block/technology/tungsten"
    }
}