{
    "parent": "block/stairs",
    "textures": {
        "bottom": "tardis:block/technology/tungsten_pattern",
        "top": "tardis:block/technology/tungsten_pattern",
        "side": "tardis:block/technology/tungsten_pattern"
    }
}
