{
  "chapters": [
    "tardis:main",
    "tardis:emotion",
    "tardis:engine",
    "tardis:subsystem",
    "tardis:upgrade",
    "tardis:flight_modes",
    "tardis:flight_controls",
    "tardis:flight_events",
    "tardis:security",
    "tardis:protocols",
    "tardis:attunement",
    "tardis:schematics",
    "tardis:energy",
    "tardis:structures"
  ]
}