{
    "variants": {
        "type=bottom": { "model": "tardis:block/alabaster_slab" },
        "type=top": { "model": "tardis:block/alabaster_slab_top" },
        "type=double": { "model": "tardis:block/alabaster" }
    }
}