{
    "variants": {
        "type=bottom": { "model": "tardis:block/blue_concrete_slab" },
        "type=top": { "model": "tardis:block/blue_concrete_slab_top" },
        "type=double": { "model": "block/blue_concrete" }
    }
}
