{
	"variants":{
    	"facing=north":{
			"model": "tardis:block/quantiscope_iron",
			"y": 0
		},
		"facing=east":{
			"model": "tardis:block/quantiscope_iron",
			"y": 90
		},
		"facing=south":{
			"model": "tardis:block/quantiscope_iron",
			"y": 180
		},
		"facing=west":{
			"model": "tardis:block/quantiscope_iron",
			"y": 270
		}
	}
}