{
  "parent": "tardis:tardis_mod",
  "display": {
    "icon": {
      "item": "tardis:tardis_key"
    },
    "title": {"translate":"advancements.tardis.title.obtained_tardis"},
    "description": {"translate":"advancements.tardis.desc.obtained_tardis"},
    "frame": "goal",
    "show_toast": true,
    "announce_to_chat": true
  },
  "criteria": {
    "obtain_tardis": {
      "trigger": "tardis:obtain_tardis"
    }
  },
  "rewards": {
    "function": "tardis:first_entrance_music",
    "experience": 50
  }
}