{
  "display_name": "Upgrades",
  "pages": [
    "tardis:upgrade/upgrade_cover",
    "tardis:upgrade/upgrade_intro",
    "tardis:upgrade/atrium",
    "tardis:upgrade/electrolytic",
    "tardis:upgrade/key_fob",
    "tardis:upgrade/structure",
    "tardis:upgrade/time_link"
  ]
}