{
	"credit": "Made with Blockbench",
	"texture_size": [32, 32],
	"textures": {
		"0": "tardis:item/datapad_screen",
		"1": "tardis:item/datapad_body",
		"particle": "tardis:item/datapad_screen"
	},
	"elements": [
		{
			"from": [1, 0.03125, 9.5],
			"to": [2.75, 0.96875, 11.5],
			"faces": {
				"north": {"uv": [10, 5, 11, 5.5], "texture": "#1"},
				"east": {"uv": [10, 8, 11, 8.5], "texture": "#1"},
				"south": {"uv": [10, 9.5, 7.5, 8], "texture": "#1"},
				"west": {"uv": [10, 9.5, 7.5, 8], "texture": "#1"},
				"up": {"uv": [11, 9.5, 7.5, 6], "texture": "#1"},
				"down": {"uv": [11, 10, 10, 11], "texture": "#1"}
			}
		},
		{
			"from": [1.25, 0.40625, 9.75],
			"to": [2.5, 1.09375, 11.25],
			"faces": {
				"north": {"uv": [1, 12, 1.5, 12.5], "texture": "#1"},
				"east": {"uv": [5.5, 10.5, 6.5, 11], "texture": "#1"},
				"south": {"uv": [1.5, 12, 2, 12.5], "texture": "#1"},
				"west": {"uv": [6.5, 10.5, 7.5, 11], "texture": "#1"},
				"up": {"uv": [16, 2.5, 13.5, 0], "texture": "#1"},
				"down": {"uv": [8.5, 10.5, 8, 11.5], "texture": "#1"}
			}
		},
		{
			"from": [1.25, 0.375, 4.75],
			"to": [2.5, 1.0625, 6.25],
			"faces": {
				"north": {"uv": [2, 12, 2.5, 12.5], "texture": "#1"},
				"east": {"uv": [0, 11, 1, 11.5], "texture": "#1"},
				"south": {"uv": [2.5, 12, 3, 12.5], "texture": "#1"},
				"west": {"uv": [4, 11, 5, 11.5], "texture": "#1"},
				"up": {"uv": [16, 2.5, 13.5, 0], "texture": "#1"},
				"down": {"uv": [6, 11, 5.5, 12], "texture": "#1"}
			}
		},
		{
			"from": [1, 0.03125, 4.5],
			"to": [2.75, 0.96875, 6.5],
			"faces": {
				"north": {"uv": [10, 9.5, 7.5, 8], "texture": "#1"},
				"east": {"uv": [9, 11, 10, 11.5], "texture": "#1"},
				"south": {"uv": [10, 11, 11, 11.5], "texture": "#1"},
				"west": {"uv": [10, 9.5, 7.5, 8], "texture": "#1"},
				"up": {"uv": [11, 9.5, 7.5, 6], "texture": "#1"},
				"down": {"uv": [11, 1, 10, 2], "texture": "#1"}
			}
		},
		{
			"from": [3.76777, 0.15625, 6.48223],
			"to": [4.76777, 0.84375, 8.23223],
			"rotation": {"angle": 45, "axis": "y", "origin": [2.5, 0.5, 9.25]},
			"faces": {
				"north": {"uv": [3, 12, 3.5, 12.5], "texture": "#1"},
				"east": {"uv": [11, 0, 12, 0.5], "texture": "#1"},
				"south": {"uv": [3.5, 12, 4, 12.5], "texture": "#1"},
				"west": {"uv": [11, 0.5, 12, 1], "texture": "#1"},
				"up": {"uv": [11.5, 3.5, 9.5, 1.5], "texture": "#1"},
				"down": {"uv": [11.5, 3.5, 9.5, 1.5], "texture": "#1"}
			}
		},
		{
			"from": [2, 0.15625, 8.25],
			"to": [2.71875, 0.84375, 10.25],
			"rotation": {"angle": -45, "axis": "y", "origin": [2.5, 0.5, 9.25]},
			"faces": {
				"north": {"uv": [4, 12, 4.5, 12.5], "texture": "#1"},
				"east": {"uv": [11, 2, 12, 2.5], "texture": "#1"},
				"south": {"uv": [4.5, 12, 5, 12.5], "texture": "#1"},
				"west": {"uv": [11, 2.5, 12, 3], "texture": "#1"},
				"up": {"uv": [11.5, 3.5, 9.5, 1.5], "texture": "#1"},
				"down": {"uv": [11.5, 3.5, 9.5, 1.5], "texture": "#1"}
			}
		},
		{
			"from": [2.75, 0.03125, 4.5],
			"to": [3.5, 0.96875, 11.5],
			"faces": {
				"north": {"uv": [5.5, 12, 6, 12.5], "texture": "#1"},
				"east": {"uv": [9, 4.5, 12.5, 5], "texture": "#1"},
				"south": {"uv": [6, 12, 6.5, 12.5], "texture": "#1"},
				"west": {"uv": [9, 5.5, 12.5, 6], "texture": "#1"},
				"up": {"uv": [5, 11, 4, 2.5], "texture": "#1"},
				"down": {"uv": [5, 7.5, 4.5, 11], "texture": "#1"}
			}
		},
		{
			"from": [12.5, 0.03125, 4.5],
			"to": [13.25, 0.96875, 11.5],
			"faces": {
				"north": {"uv": [6.5, 12, 7, 12.5], "texture": "#1"},
				"east": {"uv": [6, 9.5, 9.5, 10], "texture": "#1"},
				"south": {"uv": [7, 12, 7.5, 12.5], "texture": "#1"},
				"west": {"uv": [9.5, 9.5, 13, 10], "texture": "#1"},
				"up": {"uv": [5, 11, 4, 2.5], "texture": "#1"},
				"down": {"uv": [5.5, 10, 5, 13.5], "texture": "#1"}
			}
		},
		{
			"from": [3.5, 0.03125, 10.75],
			"to": [12.5, 0.96875, 11.5],
			"rotation": {"angle": 0, "axis": "y", "origin": [8, 0.5, 12.875]},
			"faces": {
				"north": {"uv": [5, 0.5, 9.5, 1], "texture": "#1"},
				"east": {"uv": [7.5, 12, 8, 12.5], "texture": "#1"},
				"south": {"uv": [12.5, 6, 0, 5], "texture": "#1"},
				"west": {"uv": [8, 12, 8.5, 12.5], "texture": "#1"},
				"up": {"uv": [12.5, 7, 0, 6], "texture": "#1"},
				"down": {"uv": [2.5, 5, 2, 9.5], "texture": "#1"}
			}
		},
		{
			"from": [3.5, 0.03125, 4.5],
			"to": [12.5, 0.96875, 5.25],
			"rotation": {"angle": 0, "axis": "y", "origin": [8, 0.5, 12.875]},
			"faces": {
				"north": {"uv": [12.5, 12, 0, 11], "texture": "#1"},
				"east": {"uv": [8.5, 12, 9, 12.5], "texture": "#1"},
				"south": {"uv": [5, 3, 9.5, 3.5], "texture": "#1"},
				"west": {"uv": [9, 12, 9.5, 12.5], "texture": "#1"},
				"up": {"uv": [12.5, 13, 0, 12], "texture": "#1"},
				"down": {"uv": [4.5, 5, 4, 9.5], "texture": "#1"}
			}
		},
		{
			"from": [3.25, -0.09375, 4.75],
			"to": [13, 0.4375, 11.3125],
			"faces": {
				"north": {"uv": [5, 5, 10, 5.5], "texture": "#1"},
				"east": {"uv": [9.5, 4, 13, 4.5], "texture": "#1"},
				"south": {"uv": [5, 0, 10, 0.5], "texture": "#1"},
				"west": {"uv": [5.5, 10, 9, 10.5], "texture": "#1"},
				"up": {"uv": [5, 3.5, 0, 0], "texture": "#1"},
				"down": {"uv": [12.5, 3, 0.5, 10], "texture": "#1"}
			}
		},
		{
			"from": [3.75, -0.1875, 4.25],
			"to": [4.25, 0.65625, 11.75],
			"faces": {
				"north": {"uv": [9.5, 12, 10, 12.5], "texture": "#1"},
				"east": {"uv": [5, 4.5, 9, 5], "texture": "#1"},
				"south": {"uv": [10, 12, 10.5, 12.5], "texture": "#1"},
				"west": {"uv": [5, 5.5, 9, 6], "texture": "#1"},
				"up": {"uv": [5.5, 10, 5, 6], "texture": "#1"},
				"down": {"uv": [2, 2, 1, 11.5], "texture": "#1"}
			}
		},
		{
			"from": [11.75, -0.1875, 4.25],
			"to": [12.25, 0.65625, 11.75],
			"faces": {
				"north": {"uv": [10.5, 12, 11, 12.5], "texture": "#1"},
				"east": {"uv": [6, 6, 10, 6.5], "texture": "#1"},
				"south": {"uv": [11, 12, 11.5, 12.5], "texture": "#1"},
				"west": {"uv": [6, 6.5, 10, 7], "texture": "#1"},
				"up": {"uv": [0.5, 11, 0, 7], "texture": "#1"},
				"down": {"uv": [8, 2, 7, 11.5], "texture": "#1"}
			}
		},
		{
			"from": [7.75, -0.1875, 4.25],
			"to": [8.25, 0.65625, 11.75],
			"faces": {
				"north": {"uv": [11.5, 12, 12, 12.5], "texture": "#1"},
				"east": {"uv": [1, 7, 5, 7.5], "texture": "#1"},
				"south": {"uv": [12, 12, 12.5, 12.5], "texture": "#1"},
				"west": {"uv": [6, 7, 10, 7.5], "texture": "#1"},
				"up": {"uv": [1.5, 11.5, 1, 7.5], "texture": "#1"},
				"down": {"uv": [5.5, 2, 4.5, 11.5], "texture": "#1"}
			}
		},
		{
			"from": [5.75, -0.1875, 4.25],
			"to": [6.25, 0.65625, 11.75],
			"faces": {
				"north": {"uv": [12, 0, 12.5, 0.5], "texture": "#1"},
				"east": {"uv": [6, 7.5, 10, 8], "texture": "#1"},
				"south": {"uv": [12, 0.5, 12.5, 1], "texture": "#1"},
				"west": {"uv": [6, 8, 10, 8.5], "texture": "#1"},
				"up": {"uv": [2.5, 11.5, 2, 7.5], "texture": "#1"},
				"down": {"uv": [3, 2, 2, 11.5], "texture": "#1"}
			}
		},
		{
			"from": [9.75, -0.1875, 4.25],
			"to": [10.25, 0.65625, 11.75],
			"faces": {
				"north": {"uv": [12, 1, 12.5, 1.5], "texture": "#1"},
				"east": {"uv": [6, 8.5, 10, 9], "texture": "#1"},
				"south": {"uv": [12, 1.5, 12.5, 2], "texture": "#1"},
				"west": {"uv": [6, 9, 10, 9.5], "texture": "#1"},
				"up": {"uv": [3.5, 11.5, 3, 7.5], "texture": "#1"},
				"down": {"uv": [10, 2, 9, 11.5], "texture": "#1"}
			}
		},
		{
			"from": [13.5, 0.375, 9.75],
			"to": [14.75, 1.0625, 11.25],
			"faces": {
				"north": {"uv": [12, 2, 12.5, 2.5], "texture": "#1"},
				"east": {"uv": [11, 5, 12, 5.5], "texture": "#1"},
				"south": {"uv": [12, 2.5, 12.5, 3], "texture": "#1"},
				"west": {"uv": [11, 7, 12, 7.5], "texture": "#1"},
				"up": {"uv": [16, 2.5, 13.5, 0], "texture": "#1"},
				"down": {"uv": [11.5, 8.5, 11, 9.5], "texture": "#1"}
			}
		},
		{
			"from": [13.5, 0.375, 4.75],
			"to": [14.75, 1.0625, 6.25],
			"faces": {
				"north": {"uv": [12, 3, 12.5, 3.5], "texture": "#1"},
				"east": {"uv": [11, 10, 12, 10.5], "texture": "#1"},
				"south": {"uv": [12, 3.5, 12.5, 4], "texture": "#1"},
				"west": {"uv": [11, 10.5, 12, 11], "texture": "#1"},
				"up": {"uv": [16, 2.5, 13.5, 0], "texture": "#1"},
				"down": {"uv": [1, 11.5, 0.5, 12.5], "texture": "#1"}
			}
		},
		{
			"from": [13.25, 0.03125, 9.5],
			"to": [15, 0.96875, 11.5],
			"faces": {
				"north": {"uv": [1, 11.5, 2, 12], "texture": "#1"},
				"east": {"uv": [10, 9.5, 7.5, 8], "texture": "#1"},
				"south": {"uv": [10, 9.5, 7.5, 8], "texture": "#1"},
				"west": {"uv": [4, 11.5, 5, 12], "texture": "#1"},
				"up": {"uv": [11, 9.5, 7.5, 6], "texture": "#1"},
				"down": {"uv": [11, 3, 10, 4], "texture": "#1"}
			}
		},
		{
			"from": [13.25, 0.03125, 4.5],
			"to": [15, 0.96875, 6.5],
			"faces": {
				"north": {"uv": [10, 9.5, 7.5, 8], "texture": "#1"},
				"east": {"uv": [10, 9.5, 7.5, 8], "texture": "#1"},
				"south": {"uv": [8.5, 11.5, 9.5, 12], "texture": "#1"},
				"west": {"uv": [9.5, 11.5, 10.5, 12], "texture": "#1"},
				"up": {"uv": [11, 9.5, 7.5, 6], "texture": "#1"},
				"down": {"uv": [11, 7, 10, 8], "texture": "#1"}
			}
		},
		{
			"from": [11.23223, 0.15625, 6.48223],
			"to": [12.23223, 0.84375, 8.32598],
			"rotation": {"angle": -45, "axis": "y", "origin": [13.5, 0.5, 9.25]},
			"faces": {
				"north": {"uv": [12, 5, 12.5, 5.5], "texture": "#1"},
				"east": {"uv": [10.5, 11.5, 11.5, 12], "texture": "#1"},
				"south": {"uv": [12, 7, 12.5, 7.5], "texture": "#1"},
				"west": {"uv": [11.5, 11.5, 12.5, 12], "texture": "#1"},
				"up": {"uv": [11.5, 3.5, 9.5, 1.5], "texture": "#1"},
				"down": {"uv": [11.5, 3.5, 9.5, 1.5], "texture": "#1"}
			}
		},
		{
			"from": [13, 0.15625, 8.375],
			"to": [14, 0.84375, 10.25],
			"rotation": {"angle": 45, "axis": "y", "origin": [13.5, 0.5, 9.25]},
			"faces": {
				"north": {"uv": [12, 7.5, 12.5, 8], "texture": "#1"},
				"east": {"uv": [11.5, 6, 12.5, 6.5], "texture": "#1"},
				"south": {"uv": [12, 8, 12.5, 8.5], "texture": "#1"},
				"west": {"uv": [11.5, 6.5, 12.5, 7], "texture": "#1"},
				"up": {"uv": [11.5, 3.5, 9.5, 1.5], "texture": "#1"},
				"down": {"uv": [11.5, 3.5, 9.5, 1.5], "texture": "#1"}
			}
		},
		{
			"from": [3.25, 0.1875, 4.75],
			"to": [13, 0.71875, 11.3125],
			"faces": {
				"north": {"uv": [1, 0, 0, 1], "texture": "#0"},
				"east": {"uv": [1, 0, 0, 1], "texture": "#0"},
				"south": {"uv": [1, 0, 0, 1], "texture": "#0"},
				"west": {"uv": [1, 0, 0, 1], "texture": "#0"},
				"up": {"uv": [16, 3, 0, 13], "texture": "#0"},
				"down": {"uv": [1, 0, 0, 1], "texture": "#0"}
			}
		}
	],
	"display": {
		"thirdperson_righthand": {
			"rotation": [100, -25, 20],
			"translation": [-5, 1.5, 4.5],
			"scale": [0.75, 0.75, 0.75]
		},
		"thirdperson_lefthand": {
			"rotation": [100, -25, 20],
			"translation": [-5, 1.5, 4.5],
			"scale": [0.75, 0.75, 0.75]
		},
		"firstperson_righthand": {
			"rotation": [120, -5, 80],
			"translation": [-9, 2, 4],
			"scale": [0.75, 1, 1]
		},
		"firstperson_lefthand": {
			"rotation": [120, -5, 80],
			"translation": [-9, 2, 4],
			"scale": [0.75, 1, 1]
		},
		"ground": {
			"translation": [0, 4, 0],
			"scale": [0.5, 0.5, 0.5]
		},
		"gui": {
			"rotation": [90, 22, 0]
		},
		"head": {
			"rotation": [-90, 0, 0],
			"translation": [0, 5.5, -15]
		},
		"fixed": {
			"rotation": [-90, 0, 0],
			"translation": [0, 0, -11],
			"scale": [1.4, 1.4, 1.4]
		}
	},
	"groups": [
		{
			"name": "body",
			"origin": [8, 8, 8],
			"color": 0,
			"children": [
				{
					"name": "leftgrip",
					"origin": [8, 8, 8],
					"color": 0,
					"children": [0, 1, 2, 3, 4, 5]
				},
				{
					"name": "center",
					"origin": [8, 8, 8],
					"color": 0,
					"children": [6, 7, 8, 9, 10, 11, 12, 13, 14, 15]
				},
				{
					"name": "rightgrip",
					"origin": [8, 8, 8],
					"color": 0,
					"children": [16, 17, 18, 19, 20, 21]
				}
			]
		},
		{
			"name": "screen",
			"origin": [8, 8, 8],
			"color": 0,
			"children": [22]
		}
	]
}