{
	"credit": "Made with Blockbench",
	"textures": {
		"0": "tardis:item/cybergun_earthshock",
		"particle": "tardis:item/cybergun_earthshock"
	},
	"elements": [
		{
			"from": [7.25, 7.25, 6.5],
			"to": [8.75, 8.75, 7.25],
			"faces": {
				"north": {"uv": [6.25, 0.25, 8.75, 1.75], "texture": "#0"},
				"east": {"uv": [6.25, 0.25, 8.75, 1.75], "texture": "#0"},
				"south": {"uv": [6.25, 0.25, 8.75, 1.75], "texture": "#0"},
				"west": {"uv": [6.25, 0.25, 8.75, 1.75], "texture": "#0"},
				"up": {"uv": [6.25, 0.25, 8.75, 1.75], "rotation": 90, "texture": "#0"},
				"down": {"uv": [6.25, 0.25, 8.75, 1.75], "rotation": 90, "texture": "#0"}
			}
		},
		{
			"from": [7.25, 7.25, 11.25],
			"to": [8.75, 8.75, 12.25],
			"faces": {
				"north": {"uv": [0.5, 0.5, 1.5, 1.5], "texture": "#0"},
				"east": {"uv": [0.5, 0.5, 1.5, 1.5], "texture": "#0"},
				"south": {"uv": [0.5, 0.5, 1.5, 1.5], "texture": "#0"},
				"west": {"uv": [0.5, 0.5, 1.5, 1.5], "texture": "#0"},
				"up": {"uv": [0.5, 0.5, 1.5, 1.5], "texture": "#0"},
				"down": {"uv": [0.5, 0.5, 1.5, 1.5], "texture": "#0"}
			}
		},
		{
			"from": [7.5, 7.5, 12.25],
			"to": [8.5, 8.5, 15.75],
			"faces": {
				"north": {"uv": [0.25, 6.25, 7.75, 7.75], "texture": "#0"},
				"east": {"uv": [0.25, 6.25, 7.75, 7.75], "texture": "#0"},
				"south": {"uv": [0.25, 6.25, 7.75, 7.75], "texture": "#0"},
				"west": {"uv": [0.25, 6.25, 7.75, 7.75], "texture": "#0"},
				"up": {"uv": [0.25, 6.25, 7.75, 7.75], "rotation": 90, "texture": "#0"},
				"down": {"uv": [0.25, 6.25, 7.75, 7.75], "rotation": 90, "texture": "#0"}
			}
		},
		{
			"from": [7, 7, 15.75],
			"to": [9, 10.5, 17.75],
			"faces": {
				"north": {"uv": [0.5, 0.5, 1.5, 1.5], "texture": "#0"},
				"east": {"uv": [0.5, 0.5, 1.5, 1.5], "texture": "#0"},
				"south": {"uv": [0.5, 0.5, 1.5, 1.5], "texture": "#0"},
				"west": {"uv": [0.5, 0.5, 1.5, 1.5], "texture": "#0"},
				"up": {"uv": [0.5, 0.5, 1.5, 1.5], "texture": "#0"},
				"down": {"uv": [0.5, 0.5, 1.5, 1.5], "texture": "#0"}
			}
		},
		{
			"from": [7.75, 10.5, 16.75],
			"to": [8.25, 11.5, 17.75],
			"rotation": {"angle": 0, "axis": "y", "origin": [8.75, 8, 8]},
			"faces": {
				"north": {"uv": [0.25, 8.25, 1.75, 9.75], "rotation": 90, "texture": "#0"},
				"east": {"uv": [0.25, 8.25, 1.75, 9.75], "rotation": 90, "texture": "#0"},
				"south": {"uv": [0.25, 8.25, 1.75, 9.75], "rotation": 90, "texture": "#0"},
				"west": {"uv": [0.25, 8.25, 1.75, 9.75], "rotation": 90, "texture": "#0"},
				"up": {"uv": [0.25, 8.25, 1.75, 9.75], "rotation": 90, "texture": "#0"},
				"down": {"uv": [0.25, 8.25, 1.75, 9.75], "rotation": 90, "texture": "#0"}
			}
		},
		{
			"from": [7, 9.25, 10.25],
			"to": [9, 11, 11.25],
			"faces": {
				"north": {"uv": [0.5, 0.5, 1.5, 1.5], "texture": "#0"},
				"east": {"uv": [0.5, 0.5, 1.5, 1.5], "texture": "#0"},
				"south": {"uv": [0.5, 0.5, 1.5, 1.5], "texture": "#0"},
				"west": {"uv": [0.5, 0.5, 1.5, 1.5], "texture": "#0"},
				"up": {"uv": [0.5, 0.5, 1.5, 1.5], "texture": "#0"},
				"down": {"uv": [0.5, 0.5, 1.5, 1.5], "texture": "#0"}
			}
		},
		{
			"from": [7, 10.5, 10.25],
			"to": [9, 11.5, 16.75],
			"rotation": {"angle": 0, "axis": "y", "origin": [8, 7.5, 8]},
			"faces": {
				"north": {"uv": [0.5, 0.5, 1.5, 1.5], "texture": "#0"},
				"east": {"uv": [0.5, 0.5, 1.5, 1.5], "texture": "#0"},
				"south": {"uv": [0.5, 0.5, 1.5, 1.5], "texture": "#0"},
				"west": {"uv": [0.5, 0.5, 1.5, 1.5], "texture": "#0"},
				"up": {"uv": [0.5, 0.5, 1.5, 1.5], "texture": "#0"},
				"down": {"uv": [0.5, 0.5, 1.5, 1.5], "texture": "#0"}
			}
		},
		{
			"from": [6.875, 10.375, 13.625],
			"to": [9.125, 11.625, 14.125],
			"rotation": {"angle": 0, "axis": "y", "origin": [8, 7.5, 8]},
			"faces": {
				"north": {"uv": [2.5, 0.5, 3.5, 1.5], "texture": "#0"},
				"east": {"uv": [2.5, 0.5, 3.5, 1.5], "texture": "#0"},
				"south": {"uv": [2.5, 0.5, 3.5, 1.5], "texture": "#0"},
				"west": {"uv": [2.5, 0.5, 3.5, 1.5], "texture": "#0"},
				"up": {"uv": [2.5, 0.5, 3.5, 1.5], "texture": "#0"},
				"down": {"uv": [2.5, 0.5, 3.5, 1.5], "texture": "#0"}
			}
		},
		{
			"from": [6.875, 10.375, 12.875],
			"to": [9.125, 11.625, 13.375],
			"rotation": {"angle": 0, "axis": "y", "origin": [8, 7.5, 8]},
			"faces": {
				"north": {"uv": [2.5, 0.5, 3.5, 1.5], "texture": "#0"},
				"east": {"uv": [2.5, 0.5, 3.5, 1.5], "texture": "#0"},
				"south": {"uv": [2.5, 0.5, 3.5, 1.5], "texture": "#0"},
				"west": {"uv": [2.5, 0.5, 3.5, 1.5], "texture": "#0"},
				"up": {"uv": [2.5, 0.5, 3.5, 1.5], "texture": "#0"},
				"down": {"uv": [2.5, 0.5, 3.5, 1.5], "texture": "#0"}
			}
		},
		{
			"from": [6.875, 10.375, 12.125],
			"to": [9.125, 11.625, 12.625],
			"rotation": {"angle": 0, "axis": "y", "origin": [8, 7.5, 8]},
			"faces": {
				"north": {"uv": [2.5, 0.5, 3.5, 1.5], "texture": "#0"},
				"east": {"uv": [2.5, 0.5, 3.5, 1.5], "texture": "#0"},
				"south": {"uv": [2.5, 0.5, 3.5, 1.5], "texture": "#0"},
				"west": {"uv": [2.5, 0.5, 3.5, 1.5], "texture": "#0"},
				"up": {"uv": [2.5, 0.5, 3.5, 1.5], "texture": "#0"},
				"down": {"uv": [2.5, 0.5, 3.5, 1.5], "texture": "#0"}
			}
		},
		{
			"from": [6.875, 10.375, 14.375],
			"to": [9.125, 11.625, 14.875],
			"rotation": {"angle": 0, "axis": "y", "origin": [8, 7.5, 8]},
			"faces": {
				"north": {"uv": [2.5, 0.5, 3.5, 1.5], "texture": "#0"},
				"east": {"uv": [2.5, 0.5, 3.5, 1.5], "texture": "#0"},
				"south": {"uv": [2.5, 0.5, 3.5, 1.5], "texture": "#0"},
				"west": {"uv": [2.5, 0.5, 3.5, 1.5], "texture": "#0"},
				"up": {"uv": [2.5, 0.5, 3.5, 1.5], "texture": "#0"},
				"down": {"uv": [2.5, 0.5, 3.5, 1.5], "texture": "#0"}
			}
		},
		{
			"from": [7, 8.5, 10.25],
			"to": [9, 11.5, 11.5],
			"rotation": {"angle": 22.5, "axis": "x", "origin": [8, 11.5, 10.25]},
			"faces": {
				"north": {"uv": [0.5, 0.5, 1.5, 1.5], "texture": "#0"},
				"east": {"uv": [0.5, 0.5, 1.5, 1.5], "texture": "#0"},
				"south": {"uv": [0.5, 0.5, 1.5, 1.5], "texture": "#0"},
				"west": {"uv": [0.5, 0.5, 1.5, 1.5], "texture": "#0"},
				"up": {"uv": [0.5, 0.5, 1.5, 1.5], "texture": "#0"},
				"down": {"uv": [0.5, 0.5, 1.5, 1.5], "texture": "#0"}
			}
		},
		{
			"from": [7, 10.5, 10.75],
			"to": [9, 11.5, 11.75],
			"rotation": {"angle": 45, "axis": "x", "origin": [7, 11, 10.75]},
			"faces": {
				"north": {"uv": [0.5, 0.5, 1.5, 1.5], "texture": "#0"},
				"east": {"uv": [0.5, 0.5, 1.5, 1.5], "texture": "#0"},
				"south": {"uv": [0.5, 0.5, 1.5, 1.5], "texture": "#0"},
				"west": {"uv": [0.5, 0.5, 1.5, 1.5], "texture": "#0"},
				"up": {"uv": [0.5, 0.5, 1.5, 1.5], "texture": "#0"},
				"down": {"uv": [0.5, 0.5, 1.5, 1.5], "texture": "#0"}
			}
		},
		{
			"from": [7, 10.5, 15.25],
			"to": [9, 11.5, 16.25],
			"rotation": {"angle": -45, "axis": "x", "origin": [7, 11, 16.25]},
			"faces": {
				"north": {"uv": [0.5, 0.5, 1.5, 1.5], "texture": "#0"},
				"east": {"uv": [0.5, 0.5, 1.5, 1.5], "texture": "#0"},
				"south": {"uv": [0.5, 0.5, 1.5, 1.5], "texture": "#0"},
				"west": {"uv": [0.5, 0.5, 1.5, 1.5], "texture": "#0"},
				"up": {"uv": [0.5, 0.5, 1.5, 1.5], "texture": "#0"},
				"down": {"uv": [0.5, 0.5, 1.5, 1.5], "texture": "#0"}
			}
		},
		{
			"from": [7, 10.08579, 15.75],
			"to": [9, 11.5, 16.75],
			"rotation": {"angle": -45, "axis": "x", "origin": [8, 11.5, 16.75]},
			"faces": {
				"north": {"uv": [0.5, 0.5, 1.5, 1.5], "texture": "#0"},
				"east": {"uv": [0.5, 0.5, 1.5, 1.5], "texture": "#0"},
				"south": {"uv": [0.5, 0.5, 1.5, 1.5], "texture": "#0"},
				"west": {"uv": [0.5, 0.5, 1.5, 1.5], "texture": "#0"},
				"up": {"uv": [0.5, 0.5, 1.5, 1.5], "texture": "#0"},
				"down": {"uv": [0.5, 0.5, 1.5, 1.5], "texture": "#0"}
			}
		},
		{
			"from": [6.75, 7.25, 16],
			"to": [9.25, 8, 17.5],
			"faces": {
				"north": {"uv": [2.5, 0.5, 3.5, 1.5], "texture": "#0"},
				"east": {"uv": [2.5, 0.5, 3.5, 1.5], "texture": "#0"},
				"south": {"uv": [2.5, 0.5, 3.5, 1.5], "texture": "#0"},
				"west": {"uv": [2.5, 0.5, 3.5, 1.5], "texture": "#0"},
				"up": {"uv": [2.5, 0.5, 3.5, 1.5], "texture": "#0"},
				"down": {"uv": [2.5, 0.5, 3.5, 1.5], "texture": "#0"}
			}
		},
		{
			"from": [6.75, 8.25, 16],
			"to": [9.25, 9, 17.5],
			"faces": {
				"north": {"uv": [2.5, 0.5, 3.5, 1.5], "texture": "#0"},
				"east": {"uv": [2.5, 0.5, 3.5, 1.5], "texture": "#0"},
				"south": {"uv": [2.5, 0.5, 3.5, 1.5], "texture": "#0"},
				"west": {"uv": [2.5, 0.5, 3.5, 1.5], "texture": "#0"},
				"up": {"uv": [2.5, 0.5, 3.5, 1.5], "texture": "#0"},
				"down": {"uv": [2.5, 0.5, 3.5, 1.5], "texture": "#0"}
			}
		},
		{
			"from": [6.75, 6.75, 1],
			"to": [9.25, 9.25, 2.5],
			"faces": {
				"north": {"uv": [2.25, 2.25, 5.75, 5.75], "rotation": 90, "texture": "#0"},
				"east": {"uv": [0.25, 2.25, 1.75, 5.75], "texture": "#0"},
				"south": {"uv": [2.25, 2.25, 5.75, 5.75], "rotation": 90, "texture": "#0"},
				"west": {"uv": [0.25, 2.25, 1.75, 5.75], "texture": "#0"},
				"up": {"uv": [0.25, 2.25, 1.75, 5.75], "rotation": 90, "texture": "#0"},
				"down": {"uv": [0.25, 2.25, 1.75, 5.75], "rotation": 90, "texture": "#0"}
			}
		},
		{
			"from": [6.75, 6.75, 2.5],
			"to": [9.25, 9.25, 3],
			"faces": {
				"north": {"uv": [2.5, 0.5, 3.5, 1.5], "texture": "#0"},
				"east": {"uv": [2.5, 0.5, 3.5, 1.5], "texture": "#0"},
				"south": {"uv": [2.5, 0.5, 3.5, 1.5], "texture": "#0"},
				"west": {"uv": [2.5, 0.5, 3.5, 1.5], "texture": "#0"},
				"up": {"uv": [2.5, 0.5, 3.5, 1.5], "texture": "#0"},
				"down": {"uv": [2.5, 0.5, 3.5, 1.5], "texture": "#0"}
			}
		},
		{
			"from": [6.75, 6.75, 7.25],
			"to": [9.25, 9.25, 11.25],
			"faces": {
				"north": {"uv": [0.25, 14.25, 1.75, 15.75], "texture": "#0"},
				"east": {"uv": [1.75, 14.25, 3.25, 15.75], "texture": "#0"},
				"south": {"uv": [0.25, 14.25, 1.75, 15.75], "texture": "#0"},
				"west": {"uv": [1.75, 14.25, 3.25, 15.75], "texture": "#0"},
				"up": {"uv": [1.75, 14.25, 3.25, 15.75], "rotation": 90, "texture": "#0"},
				"down": {"uv": [1.75, 14.25, 3.25, 15.75], "rotation": 90, "texture": "#0"}
			}
		},
		{
			"from": [7.5, 9.25, 7.75],
			"to": [8.5, 9.625, 8.75],
			"faces": {
				"north": {"uv": [2.5, 0.5, 3.5, 1.5], "texture": "#0"},
				"east": {"uv": [2.5, 0.5, 3.5, 1.5], "texture": "#0"},
				"south": {"uv": [2.5, 0.5, 3.5, 1.5], "texture": "#0"},
				"west": {"uv": [2.5, 0.5, 3.5, 1.5], "texture": "#0"},
				"up": {"uv": [2.5, 0.5, 3.5, 1.5], "texture": "#0"},
				"down": {"uv": [2.5, 0.5, 3.5, 1.5], "texture": "#0"}
			}
		},
		{
			"from": [6.5, 7.625, 7.5],
			"to": [9.5, 8.375, 11],
			"rotation": {"angle": 0, "axis": "y", "origin": [8, 8.75, 8]},
			"faces": {
				"north": {"uv": [0.5, 0.5, 1.5, 1.5], "texture": "#0"},
				"east": {"uv": [0.5, 0.5, 1.5, 1.5], "texture": "#0"},
				"south": {"uv": [0.5, 0.5, 1.5, 1.5], "texture": "#0"},
				"west": {"uv": [0.5, 0.5, 1.5, 1.5], "texture": "#0"},
				"up": {"uv": [0.5, 0.5, 1.5, 1.5], "texture": "#0"},
				"down": {"uv": [0.5, 0.5, 1.5, 1.5], "texture": "#0"}
			}
		},
		{
			"from": [6.75, 6.75, 6],
			"to": [9.25, 9.25, 6.5],
			"faces": {
				"north": {"uv": [2.5, 0.5, 3.5, 1.5], "texture": "#0"},
				"east": {"uv": [2.5, 0.5, 3.5, 1.5], "texture": "#0"},
				"south": {"uv": [2.5, 0.5, 3.5, 1.5], "texture": "#0"},
				"west": {"uv": [2.5, 0.5, 3.5, 1.5], "texture": "#0"},
				"up": {"uv": [2.5, 0.5, 3.5, 1.5], "texture": "#0"},
				"down": {"uv": [2.5, 0.5, 3.5, 1.5], "texture": "#0"}
			}
		},
		{
			"from": [6.75, 6.75, 4.25],
			"to": [9.25, 9.25, 4.75],
			"faces": {
				"north": {"uv": [2.5, 0.5, 3.5, 1.5], "texture": "#0"},
				"east": {"uv": [2.5, 0.5, 3.5, 1.5], "texture": "#0"},
				"south": {"uv": [2.5, 0.5, 3.5, 1.5], "texture": "#0"},
				"west": {"uv": [2.5, 0.5, 3.5, 1.5], "texture": "#0"},
				"up": {"uv": [2.5, 0.5, 3.5, 1.5], "texture": "#0"},
				"down": {"uv": [2.5, 0.5, 3.5, 1.5], "texture": "#0"}
			}
		},
		{
			"from": [6.875, 6.875, 3],
			"to": [9.125, 9.125, 6],
			"faces": {
				"north": {"uv": [4.25, 0.25, 5.75, 1.75], "texture": "#0"},
				"east": {"uv": [4.25, 0.25, 5.75, 1.75], "texture": "#0"},
				"south": {"uv": [4.25, 0.25, 5.75, 1.75], "texture": "#0"},
				"west": {"uv": [4.25, 0.25, 5.75, 1.75], "texture": "#0"},
				"up": {"uv": [4.25, 0.25, 5.75, 1.75], "texture": "#0"},
				"down": {"uv": [4.25, 0.25, 5.75, 1.75], "texture": "#0"}
			}
		},
		{
			"from": [6.75, 7.75, 3],
			"to": [9.25, 8.25, 6],
			"faces": {
				"north": {"uv": [2.5, 0.5, 3.5, 1.5], "texture": "#0"},
				"east": {"uv": [2.5, 0.5, 3.5, 1.5], "texture": "#0"},
				"south": {"uv": [2.5, 0.5, 3.5, 1.5], "texture": "#0"},
				"west": {"uv": [2.5, 0.5, 3.5, 1.5], "texture": "#0"},
				"up": {"uv": [2.5, 0.5, 3.5, 1.5], "texture": "#0"},
				"down": {"uv": [2.5, 0.5, 3.5, 1.5], "texture": "#0"}
			}
		},
		{
			"from": [7.75, 6.75, 3],
			"to": [8.25, 9.25, 6],
			"faces": {
				"north": {"uv": [2.5, 0.5, 3.5, 1.5], "texture": "#0"},
				"east": {"uv": [2.5, 0.5, 3.5, 1.5], "texture": "#0"},
				"south": {"uv": [2.5, 0.5, 3.5, 1.5], "texture": "#0"},
				"west": {"uv": [2.5, 0.5, 3.5, 1.5], "texture": "#0"},
				"up": {"uv": [2.5, 0.5, 3.5, 1.5], "texture": "#0"},
				"down": {"uv": [2.5, 0.5, 3.5, 1.5], "texture": "#0"}
			}
		},
		{
			"from": [7.5, 7.5, 0.5],
			"to": [8.5, 8.5, 2.5],
			"faces": {
				"north": {"uv": [2.5, 0.5, 3.5, 1.5], "texture": "#0"},
				"east": {"uv": [2.5, 0.5, 3.5, 1.5], "texture": "#0"},
				"south": {"uv": [2.5, 0.5, 3.5, 1.5], "texture": "#0"},
				"west": {"uv": [2.5, 0.5, 3.5, 1.5], "texture": "#0"},
				"up": {"uv": [2.5, 0.5, 3.5, 1.5], "texture": "#0"},
				"down": {"uv": [2.5, 0.5, 3.5, 1.5], "texture": "#0"}
			}
		},
		{
			"from": [7, 8.5, 0],
			"to": [9, 9, 1],
			"faces": {
				"north": {"uv": [0.5, 0.5, 1.5, 1.5], "texture": "#0"},
				"east": {"uv": [6.25, 0.25, 8.75, 1.75], "texture": "#0"},
				"south": {"uv": [0.5, 0.5, 1.5, 1.5], "texture": "#0"},
				"west": {"uv": [6.25, 0.25, 8.75, 1.75], "texture": "#0"},
				"up": {"uv": [6.25, 0.25, 8.75, 1.75], "rotation": 90, "texture": "#0"},
				"down": {"uv": [6.25, 0.25, 8.75, 1.75], "rotation": 90, "texture": "#0"}
			}
		},
		{
			"from": [7, 7, 0],
			"to": [9, 7.5, 1],
			"faces": {
				"north": {"uv": [0.5, 0.5, 1.5, 1.5], "texture": "#0"},
				"east": {"uv": [6.25, 0.25, 8.75, 1.75], "texture": "#0"},
				"south": {"uv": [0.5, 0.5, 1.5, 1.5], "texture": "#0"},
				"west": {"uv": [6.25, 0.25, 8.75, 1.75], "texture": "#0"},
				"up": {"uv": [6.25, 0.25, 8.75, 1.75], "rotation": 90, "texture": "#0"},
				"down": {"uv": [6.25, 0.25, 8.75, 1.75], "rotation": 90, "texture": "#0"}
			}
		},
		{
			"from": [7, 7.5, 0],
			"to": [7.5, 8.5, 1],
			"faces": {
				"north": {"uv": [0.5, 0.5, 1.5, 1.5], "texture": "#0"},
				"east": {"uv": [6.25, 0.25, 8.75, 1.75], "texture": "#0"},
				"south": {"uv": [0.5, 0.5, 1.5, 1.5], "texture": "#0"},
				"west": {"uv": [6.25, 0.25, 8.75, 1.75], "texture": "#0"},
				"up": {"uv": [6.25, 0.25, 8.75, 1.75], "rotation": 90, "texture": "#0"},
				"down": {"uv": [6.25, 0.25, 8.75, 1.75], "rotation": 90, "texture": "#0"}
			}
		},
		{
			"from": [8.5, 7.5, 0],
			"to": [9, 8.5, 1],
			"faces": {
				"north": {"uv": [1.5, 0.5, 0.5, 1.5], "texture": "#0"},
				"east": {"uv": [8.75, 0.25, 6.25, 1.75], "texture": "#0"},
				"south": {"uv": [1.5, 0.5, 0.5, 1.5], "texture": "#0"},
				"west": {"uv": [8.75, 0.25, 6.25, 1.75], "texture": "#0"},
				"up": {"uv": [6.25, 1.75, 8.75, 0.25], "rotation": 90, "texture": "#0"},
				"down": {"uv": [6.25, 1.75, 8.75, 0.25], "rotation": 90, "texture": "#0"}
			}
		}
	],
	"overrides": [
		{
			"predicate": {
				"aimed": 0
			},
			"model": "tardis:item/earthshock_gun"
		},
		{
			"predicate": {
				"aimed": 1
			},
			"model": "tardis:item/earthshock_gun_aimed"
		}
	],
	"display": {
		"thirdperson_righthand": {
			"translation": [0, -0.5, -2.25],
			"scale": [0.75, 0.75, 0.75]
		},
		"thirdperson_lefthand": {
			"translation": [0, -0.5, -2.25],
			"scale": [0.75, 0.75, 0.75]
		},
		"firstperson_righthand": {
			"rotation": [-19, 0, 0],
			"translation": [0, 2.5, 0]
		},
		"firstperson_lefthand": {
			"rotation": [-19, 0, 0],
			"translation": [0, 2.5, 0]
		},
		"ground": {
			"scale": [0.75, 0.75, 0.75]
		},
		"gui": {
			"rotation": [0, -90, 0],
			"translation": [0.5, 0, 0],
			"scale": [0.8, 0.8, 0.8]
		},
		"head": {
			"translation": [0, 8.5, 0]
		},
		"fixed": {
			"rotation": [0, 90, 0],
			"translation": [-0.875, 0, 0]
		}
	}
}