{
	"credit": "Made with Blockbench",
	"texture_size": [64, 64],
	"textures": {
		"0": "tardis:item/navcom",
		"particle": "tardis:item/navcom"
	},
	"elements": [
		{
			"from": [4.75, 0.25, 13.81739],
			"to": [11.25, 2.125, 15.81739],
			"rotation": {"angle": 0, "axis": "y", "origin": [8, 8, 20.81739]},
			"faces": {
				"north": {"uv": [1.75, 4.75, 3.5, 5.25], "texture": "#0"},
				"east": {"uv": [7.75, 4.25, 8.25, 4.75], "texture": "#0"},
				"south": {"uv": [3.5, 4.75, 5.25, 5.25], "texture": "#0"},
				"west": {"uv": [1.5, 8, 2, 8.5], "texture": "#0"},
				"up": {"uv": [6.5, 2.75, 4.75, 2.25], "texture": "#0"},
				"down": {"uv": [6.5, 3.75, 4.75, 4.25], "texture": "#0"}
			}
		},
		{
			"from": [4.75, 0.25, 0.125],
			"to": [11.25, 2.125, 2.125],
			"rotation": {"angle": 0, "axis": "y", "origin": [8, 8, 8.125]},
			"faces": {
				"north": {"uv": [3, 2.25, 4.75, 2.75], "texture": "#0"},
				"east": {"uv": [1, 7.75, 1.5, 8.25], "texture": "#0"},
				"south": {"uv": [3, 3.75, 4.75, 4.25], "texture": "#0"},
				"west": {"uv": [7.75, 3.75, 8.25, 4.25], "texture": "#0"},
				"up": {"uv": [4.75, 4.75, 3, 4.25], "texture": "#0"},
				"down": {"uv": [1.75, 4.5, 0, 5], "texture": "#0"}
			}
		},
		{
			"from": [7.5, 0, -0.125],
			"to": [8.5, 2.375, 2.375],
			"rotation": {"angle": 0, "axis": "y", "origin": [8, 8, 8.125]},
			"faces": {
				"north": {"uv": [6.5, 9.5, 6.75, 10], "texture": "#0"},
				"east": {"uv": [7.5, 1, 8.25, 1.5], "texture": "#0"},
				"south": {"uv": [6.75, 9.5, 7, 10], "texture": "#0"},
				"west": {"uv": [0, 7.75, 0.75, 8.25], "texture": "#0"},
				"up": {"uv": [8.75, 7.75, 8.5, 7], "texture": "#0"},
				"down": {"uv": [0.25, 8.75, 0, 9.5], "texture": "#0"}
			}
		},
		{
			"from": [4.5, 0.5, 5.125],
			"to": [11.5, 2, 5.875],
			"rotation": {"angle": 0, "axis": "y", "origin": [8, 8, 12.125]},
			"faces": {
				"north": {"uv": [6.25, 5.25, 8, 5.75], "texture": "#0"},
				"east": {"uv": [8.75, 6.5, 9, 7], "texture": "#0"},
				"south": {"uv": [6.25, 5.75, 8, 6.25], "texture": "#0"},
				"west": {"uv": [8.75, 7, 9, 7.5], "texture": "#0"},
				"up": {"uv": [5.5, 7.5, 3.75, 7.25], "texture": "#0"},
				"down": {"uv": [7.25, 7.25, 5.5, 7.5], "texture": "#0"}
			}
		},
		{
			"from": [10.75, 0.5, 5.875],
			"to": [11.5, 2, 9.625],
			"rotation": {"angle": 0, "axis": "y", "origin": [9, 8, 12.875]},
			"faces": {
				"north": {"uv": [9.25, 2.5, 9.5, 3], "texture": "#0"},
				"east": {"uv": [1.5, 7, 2.5, 7.5], "texture": "#0"},
				"south": {"uv": [9.25, 3, 9.5, 3.5], "texture": "#0"},
				"west": {"uv": [7, 2.75, 8, 3.25], "texture": "#0"},
				"up": {"uv": [0.75, 9.25, 0.5, 8.25], "texture": "#0"},
				"down": {"uv": [2.75, 8.25, 2.5, 9.25], "texture": "#0"}
			}
		},
		{
			"from": [8.42157, 0.5, 11.9283],
			"to": [9.17157, 2, 14.6783],
			"rotation": {"angle": 0, "axis": "y", "origin": [6.67157, 8, 18.9283]},
			"faces": {
				"north": {"uv": [9.25, 5.75, 9.5, 6.25], "texture": "#0"},
				"east": {"uv": [0, 7.25, 0.75, 7.75], "texture": "#0"},
				"south": {"uv": [9.25, 6.25, 9.5, 6.75], "texture": "#0"},
				"west": {"uv": [0.75, 7.25, 1.5, 7.75], "texture": "#0"},
				"up": {"uv": [2, 9.25, 1.75, 8.5], "texture": "#0"},
				"down": {"uv": [8.75, 2.75, 8.5, 3.5], "texture": "#0"}
			}
		},
		{
			"from": [6.82843, 0.5, 11.9283],
			"to": [7.57843, 2, 14.6783],
			"rotation": {"angle": 0, "axis": "y", "origin": [5.07843, 8, 18.9283]},
			"faces": {
				"north": {"uv": [9.25, 6.75, 9.5, 7.25], "texture": "#0"},
				"east": {"uv": [7.25, 7.25, 8, 7.75], "texture": "#0"},
				"south": {"uv": [9.25, 7.25, 9.5, 7.75], "texture": "#0"},
				"west": {"uv": [1.5, 7.5, 2.25, 8], "texture": "#0"},
				"up": {"uv": [8.75, 4.25, 8.5, 3.5], "texture": "#0"},
				"down": {"uv": [8.75, 4.25, 8.5, 5], "texture": "#0"}
			}
		},
		{
			"from": [3.75, 0.5, 2.125],
			"to": [4.5, 2, 5.875],
			"rotation": {"angle": 0, "axis": "y", "origin": [2, 8, 8.125]},
			"faces": {
				"north": {"uv": [9.25, 4.75, 9.5, 5.25], "texture": "#0"},
				"east": {"uv": [7, 3.25, 8, 3.75], "texture": "#0"},
				"south": {"uv": [9.25, 5.25, 9.5, 5.75], "texture": "#0"},
				"west": {"uv": [7, 4.75, 8, 5.25], "texture": "#0"},
				"up": {"uv": [8.5, 4.75, 8.25, 3.75], "texture": "#0"},
				"down": {"uv": [1.75, 8.5, 1.5, 9.5], "texture": "#0"}
			}
		},
		{
			"from": [11.95711, 0.5, 8.39277],
			"to": [14.20711, 2, 9.14277],
			"rotation": {"angle": 0, "axis": "y", "origin": [10.20711, 8, 12.39277]},
			"faces": {
				"north": {"uv": [8.25, 0, 8.75, 0.5], "texture": "#0"},
				"east": {"uv": [9.25, 3.5, 9.5, 4], "texture": "#0"},
				"south": {"uv": [8.25, 0.5, 8.75, 1], "texture": "#0"},
				"west": {"uv": [9.25, 4, 9.5, 4.5], "texture": "#0"},
				"up": {"uv": [9.75, 2.25, 9.25, 2], "texture": "#0"},
				"down": {"uv": [9.75, 4.5, 9.25, 4.75], "texture": "#0"}
			}
		},
		{
			"from": [1.79289, 0.5, 8.39277],
			"to": [4.04289, 2, 9.14277],
			"rotation": {"angle": 0, "axis": "y", "origin": [0.04289, 8, 12.39277]},
			"faces": {
				"north": {"uv": [8.25, 1, 8.75, 1.5], "texture": "#0"},
				"east": {"uv": [9.25, 7.75, 9.5, 8.25], "texture": "#0"},
				"south": {"uv": [8.25, 7.75, 8.75, 8.25], "texture": "#0"},
				"west": {"uv": [9.25, 8.25, 9.5, 8.75], "texture": "#0"},
				"up": {"uv": [9.75, 9, 9.25, 8.75], "texture": "#0"},
				"down": {"uv": [9.75, 9, 9.25, 9.25], "texture": "#0"}
			}
		},
		{
			"from": [7, 0.25, 4.875],
			"to": [9, 2.25, 6.125],
			"rotation": {"angle": 0, "axis": "y", "origin": [8, 8, 12.125]},
			"faces": {
				"north": {"uv": [4.75, 8.25, 5.25, 8.75], "texture": "#0"},
				"east": {"uv": [2.25, 9, 2.5, 9.5], "texture": "#0"},
				"south": {"uv": [8.25, 8.25, 8.75, 8.75], "texture": "#0"},
				"west": {"uv": [2.75, 9, 3, 9.5], "texture": "#0"},
				"up": {"uv": [9.25, 8.75, 8.75, 8.5], "texture": "#0"},
				"down": {"uv": [3.5, 9, 3, 9.25], "texture": "#0"}
			}
		},
		{
			"from": [4.25, 0.25, 6.625],
			"to": [5.25, 2.25, 7.625],
			"rotation": {"angle": 0, "axis": "y", "origin": [6.25, 8, 13.875]},
			"faces": {
				"north": {"uv": [0, 9.5, 0.25, 10], "texture": "#0"},
				"east": {"uv": [0.75, 9.5, 1, 10], "texture": "#0"},
				"south": {"uv": [1.5, 9.5, 1.75, 10], "texture": "#0"},
				"west": {"uv": [2, 9.5, 2.25, 10], "texture": "#0"},
				"up": {"uv": [9.75, 6.5, 9.5, 6.25], "texture": "#0"},
				"down": {"uv": [9.75, 6.5, 9.5, 6.75], "texture": "#0"}
			}
		},
		{
			"from": [9.75, 0.25, 3.125],
			"to": [10.75, 2.25, 4.125],
			"rotation": {"angle": 0, "axis": "y", "origin": [11.75, 8, 10.375]},
			"faces": {
				"north": {"uv": [2.5, 7, 2.75, 7.5], "texture": "#0"},
				"east": {"uv": [0.25, 8.75, 0.5, 9.25], "texture": "#0"},
				"south": {"uv": [1, 8.75, 1.25, 9.25], "texture": "#0"},
				"west": {"uv": [1.25, 8.75, 1.5, 9.25], "texture": "#0"},
				"up": {"uv": [1.75, 7, 1.5, 6.75], "texture": "#0"},
				"down": {"uv": [2.25, 8, 2, 8.25], "texture": "#0"}
			}
		},
		{
			"from": [5.6875, 0.25, 7.125],
			"to": [6.6875, 2.25, 8.125],
			"rotation": {"angle": 0, "axis": "y", "origin": [7.6875, 8, 14.375]},
			"faces": {
				"north": {"uv": [2.25, 9.5, 2.5, 10], "texture": "#0"},
				"east": {"uv": [2.75, 9.5, 3, 10], "texture": "#0"},
				"south": {"uv": [3.5, 9.5, 3.75, 10], "texture": "#0"},
				"west": {"uv": [3.75, 9.5, 4, 10], "texture": "#0"},
				"up": {"uv": [9.75, 7, 9.5, 6.75], "texture": "#0"},
				"down": {"uv": [9.75, 7, 9.5, 7.25], "texture": "#0"}
			}
		},
		{
			"from": [9.25, 0, 7.125],
			"to": [10.25, 2, 8.125],
			"rotation": {"angle": 0, "axis": "y", "origin": [11.25, 7.75, 14.375]},
			"faces": {
				"north": {"uv": [4, 9.5, 4.25, 10], "texture": "#0"},
				"east": {"uv": [4.25, 9.5, 4.5, 10], "texture": "#0"},
				"south": {"uv": [4.5, 9.5, 4.75, 10], "texture": "#0"},
				"west": {"uv": [4.75, 9.5, 5, 10], "texture": "#0"},
				"up": {"uv": [9.75, 7.5, 9.5, 7.25], "texture": "#0"},
				"down": {"uv": [9.75, 7.5, 9.5, 7.75], "texture": "#0"}
			}
		},
		{
			"from": [7, -0.375, 6.71875],
			"to": [9, 2.625, 8.71875],
			"rotation": {"angle": 0, "axis": "y", "origin": [10, 7.375, 13.96875]},
			"faces": {
				"north": {"uv": [2.25, 7.5, 2.75, 8.25], "texture": "#0"},
				"east": {"uv": [3.75, 7.5, 4.25, 8.25], "texture": "#0"},
				"south": {"uv": [4.25, 7.5, 4.75, 8.25], "texture": "#0"},
				"west": {"uv": [4.75, 7.5, 5.25, 8.25], "texture": "#0"},
				"up": {"uv": [3.25, 9, 2.75, 8.5], "texture": "#0"},
				"down": {"uv": [3.75, 8.5, 3.25, 9], "texture": "#0"}
			}
		},
		{
			"from": [6.25, 0.25, 4.875],
			"to": [6.75, 2.25, 6.125],
			"rotation": {"angle": 0, "axis": "y", "origin": [6.5, 8, 12.125]},
			"faces": {
				"north": {"uv": [3.5, 9, 3.75, 9.5], "texture": "#0"},
				"east": {"uv": [3.75, 9, 4, 9.5], "texture": "#0"},
				"south": {"uv": [4, 9, 4.25, 9.5], "texture": "#0"},
				"west": {"uv": [4.25, 9, 4.5, 9.5], "texture": "#0"},
				"up": {"uv": [9.75, 1, 9.5, 0.75], "texture": "#0"},
				"down": {"uv": [9.75, 1, 9.5, 1.25], "texture": "#0"}
			}
		},
		{
			"from": [9.25, 0.25, 4.875],
			"to": [9.75, 2.25, 6.125],
			"rotation": {"angle": 0, "axis": "y", "origin": [9.5, 8, 12.125]},
			"faces": {
				"north": {"uv": [4.5, 9, 4.75, 9.5], "texture": "#0"},
				"east": {"uv": [4.75, 9, 5, 9.5], "texture": "#0"},
				"south": {"uv": [5, 9, 5.25, 9.5], "texture": "#0"},
				"west": {"uv": [5.25, 9, 5.5, 9.5], "texture": "#0"},
				"up": {"uv": [9.75, 1.5, 9.5, 1.25], "texture": "#0"},
				"down": {"uv": [9.75, 1.5, 9.5, 1.75], "texture": "#0"}
			}
		},
		{
			"from": [13.84619, 0.25, 4.72119],
			"to": [15.84619, 2.125, 11.22119],
			"rotation": {"angle": 0, "axis": "y", "origin": [12.84619, 8, 12.97119]},
			"faces": {
				"north": {"uv": [5.25, 8, 5.75, 8.5], "texture": "#0"},
				"east": {"uv": [4.75, 4.25, 6.5, 4.75], "texture": "#0"},
				"south": {"uv": [5.75, 8, 6.25, 8.5], "texture": "#0"},
				"west": {"uv": [0, 5, 1.75, 5.5], "texture": "#0"},
				"up": {"uv": [2.25, 7, 1.75, 5.25], "texture": "#0"},
				"down": {"uv": [2.75, 5.25, 2.25, 7], "texture": "#0"}
			}
		},
		{
			"from": [0.15381, 0.25, 4.72119],
			"to": [2.15381, 2.125, 11.22119],
			"rotation": {"angle": 0, "axis": "y", "origin": [0.15381, 8, 12.97119]},
			"faces": {
				"north": {"uv": [6.25, 8, 6.75, 8.5], "texture": "#0"},
				"east": {"uv": [2.75, 5.25, 4.5, 5.75], "texture": "#0"},
				"south": {"uv": [6.75, 8, 7.25, 8.5], "texture": "#0"},
				"west": {"uv": [4.5, 5.25, 6.25, 5.75], "texture": "#0"},
				"up": {"uv": [5.75, 1.75, 5.25, 0], "texture": "#0"},
				"down": {"uv": [0.5, 5.5, 0, 7.25], "texture": "#0"}
			}
		},
		{
			"from": [2.15381, 1, 3.72119],
			"to": [14.15381, 1.5, 12.22119],
			"rotation": {"angle": 0, "axis": "y", "origin": [2.15381, 8, 12.97119]},
			"faces": {
				"north": {"uv": [5.75, 1.5, 8.75, 1.75], "texture": "#0"},
				"east": {"uv": [3, 2.75, 5.25, 3], "texture": "#0"},
				"south": {"uv": [6.5, 2.25, 9.5, 2.5], "texture": "#0"},
				"west": {"uv": [6.5, 2.5, 8.75, 2.75], "texture": "#0"},
				"up": {"uv": [3, 2.25, 0, 0], "texture": "#0"},
				"down": {"uv": [3, 2.25, 0, 4.5], "texture": "#0"}
			}
		},
		{
			"from": [3.65381, 1, 1.22119],
			"to": [12.15381, 1.5, 3.72119],
			"rotation": {"angle": 0, "axis": "y", "origin": [2.65381, 8, 4.47119]},
			"faces": {
				"north": {"uv": [6.25, 6.75, 8.5, 7], "texture": "#0"},
				"east": {"uv": [5.25, 8.5, 6, 8.75], "texture": "#0"},
				"south": {"uv": [6.25, 7, 8.5, 7.25], "texture": "#0"},
				"west": {"uv": [6, 8.5, 6.75, 8.75], "texture": "#0"},
				"up": {"uv": [5.25, 3.75, 3, 3], "texture": "#0"},
				"down": {"uv": [5.25, 0, 3, 0.75], "texture": "#0"}
			}
		},
		{
			"from": [3.65381, 1, 12.22119],
			"to": [12.15381, 1.5, 14.72119],
			"rotation": {"angle": 0, "axis": "y", "origin": [2.65381, 8, 15.47119]},
			"faces": {
				"north": {"uv": [7, 1.75, 9.25, 2], "texture": "#0"},
				"east": {"uv": [6.75, 8.5, 7.5, 8.75], "texture": "#0"},
				"south": {"uv": [7, 2, 9.25, 2.25], "texture": "#0"},
				"west": {"uv": [7.5, 8.5, 8.25, 8.75], "texture": "#0"},
				"up": {"uv": [5.25, 1.5, 3, 0.75], "texture": "#0"},
				"down": {"uv": [5.25, 1.5, 3, 2.25], "texture": "#0"}
			}
		},
		{
			"from": [4.64124, 0.25, 13.86244],
			"to": [11.14124, 2.125, 15.86244],
			"rotation": {"angle": 45, "axis": "y", "origin": [7.89124, 0.5, 7.86244]},
			"faces": {
				"north": {"uv": [5.75, 0, 7.5, 0.5], "texture": "#0"},
				"east": {"uv": [8, 4.75, 8.5, 5.25], "texture": "#0"},
				"south": {"uv": [5.75, 0.5, 7.5, 1], "texture": "#0"},
				"west": {"uv": [8, 5.25, 8.5, 5.75], "texture": "#0"},
				"up": {"uv": [7.5, 1.5, 5.75, 1], "texture": "#0"},
				"down": {"uv": [4.5, 6.25, 2.75, 6.75], "texture": "#0"}
			}
		},
		{
			"from": [7.39124, 0, 13.61244],
			"to": [8.39124, 2.375, 16.11244],
			"rotation": {"angle": 45, "axis": "y", "origin": [7.89124, 0.5, 7.86244]},
			"faces": {
				"north": {"uv": [5.5, 9.5, 5.75, 10], "texture": "#0"},
				"east": {"uv": [7.5, 0, 8.25, 0.5], "texture": "#0"},
				"south": {"uv": [6.25, 9.5, 6.5, 10], "texture": "#0"},
				"west": {"uv": [7.5, 0.5, 8.25, 1], "texture": "#0"},
				"up": {"uv": [8.75, 6.25, 8.5, 5.5], "texture": "#0"},
				"down": {"uv": [8.75, 6.25, 8.5, 7], "texture": "#0"}
			}
		},
		{
			"from": [5.39124, 0.5, 11.11244],
			"to": [10.39124, 2, 11.86244],
			"rotation": {"angle": 45, "axis": "y", "origin": [7.89124, 0.5, 7.86244]},
			"faces": {
				"north": {"uv": [6.5, 3.75, 7.75, 4.25], "texture": "#0"},
				"east": {"uv": [8.75, 7.5, 9, 8], "texture": "#0"},
				"south": {"uv": [6.5, 4.25, 7.75, 4.75], "texture": "#0"},
				"west": {"uv": [8.75, 8, 9, 8.5], "texture": "#0"},
				"up": {"uv": [3, 4.75, 1.75, 4.5], "texture": "#0"},
				"down": {"uv": [8, 7.75, 6.75, 8], "texture": "#0"}
			}
		},
		{
			"from": [9.14124, 0.25, 10.86244],
			"to": [9.64124, 2.25, 12.11244],
			"rotation": {"angle": 45, "axis": "y", "origin": [7.89124, 0.5, 7.86244]},
			"faces": {
				"north": {"uv": [5.5, 9, 5.75, 9.5], "texture": "#0"},
				"east": {"uv": [6.25, 9, 6.5, 9.5], "texture": "#0"},
				"south": {"uv": [6.5, 9, 6.75, 9.5], "texture": "#0"},
				"west": {"uv": [6.75, 9, 7, 9.5], "texture": "#0"},
				"up": {"uv": [9.75, 2, 9.5, 1.75], "texture": "#0"},
				"down": {"uv": [9.75, 2.25, 9.5, 2.5], "texture": "#0"}
			}
		},
		{
			"from": [6.14124, 0.25, 10.86244],
			"to": [6.64124, 2.25, 12.11244],
			"rotation": {"angle": 45, "axis": "y", "origin": [7.89124, 0.5, 7.86244]},
			"faces": {
				"north": {"uv": [2.5, 9.25, 2.75, 9.75], "texture": "#0"},
				"east": {"uv": [3, 9.25, 3.25, 9.75], "texture": "#0"},
				"south": {"uv": [3.25, 9.25, 3.5, 9.75], "texture": "#0"},
				"west": {"uv": [5.75, 9.25, 6, 9.75], "texture": "#0"},
				"up": {"uv": [9.75, 5, 9.5, 4.75], "texture": "#0"},
				"down": {"uv": [9.75, 5, 9.5, 5.25], "texture": "#0"}
			}
		},
		{
			"from": [8.01624, 0.25, 10.86244],
			"to": [8.89124, 2.25, 12.11244],
			"rotation": {"angle": 45, "axis": "y", "origin": [7.89124, 0.5, 7.86244]},
			"faces": {
				"north": {"uv": [6, 9.25, 6.25, 9.75], "texture": "#0"},
				"east": {"uv": [7.25, 9.25, 7.5, 9.75], "texture": "#0"},
				"south": {"uv": [7.5, 9.25, 7.75, 9.75], "texture": "#0"},
				"west": {"uv": [9.25, 9.25, 9.5, 9.75], "texture": "#0"},
				"up": {"uv": [9.75, 5.5, 9.5, 5.25], "texture": "#0"},
				"down": {"uv": [9.75, 5.5, 9.5, 5.75], "texture": "#0"}
			}
		},
		{
			"from": [6.89124, 0.25, 10.86244],
			"to": [7.76624, 2.25, 12.11244],
			"rotation": {"angle": 45, "axis": "y", "origin": [7.89124, 0.5, 7.86244]},
			"faces": {
				"north": {"uv": [9.25, 0, 9.5, 0.5], "texture": "#0"},
				"east": {"uv": [9.25, 0.5, 9.5, 1], "texture": "#0"},
				"south": {"uv": [9.25, 1, 9.5, 1.5], "texture": "#0"},
				"west": {"uv": [9.25, 1.5, 9.5, 2], "texture": "#0"},
				"up": {"uv": [9.75, 6, 9.5, 5.75], "texture": "#0"},
				"down": {"uv": [9.75, 6, 9.5, 6.25], "texture": "#0"}
			}
		},
		{
			"from": [4.85876, 0.25, 0.07995],
			"to": [11.35876, 2.125, 2.07995],
			"rotation": {"angle": 45, "axis": "y", "origin": [8.10876, 0.5, 8.07995]},
			"faces": {
				"north": {"uv": [5.25, 1.75, 7, 2.25], "texture": "#0"},
				"east": {"uv": [7.25, 8, 7.75, 8.5], "texture": "#0"},
				"south": {"uv": [5.25, 2.75, 7, 3.25], "texture": "#0"},
				"west": {"uv": [7.75, 8, 8.25, 8.5], "texture": "#0"},
				"up": {"uv": [7, 3.75, 5.25, 3.25], "texture": "#0"},
				"down": {"uv": [7, 4.75, 5.25, 5.25], "texture": "#0"}
			}
		},
		{
			"from": [13.89124, 0.25, 4.82995],
			"to": [15.89124, 2.125, 11.32995],
			"rotation": {"angle": 45, "axis": "y", "origin": [7.89124, 0.5, 8.07995]},
			"faces": {
				"north": {"uv": [8, 5.75, 8.5, 6.25], "texture": "#0"},
				"east": {"uv": [4.5, 6.25, 6.25, 6.75], "texture": "#0"},
				"south": {"uv": [8, 6.25, 8.5, 6.75], "texture": "#0"},
				"west": {"uv": [6.25, 6.25, 8, 6.75], "texture": "#0"},
				"up": {"uv": [3.25, 8.5, 2.75, 6.75], "texture": "#0"},
				"down": {"uv": [3.75, 6.75, 3.25, 8.5], "texture": "#0"}
			}
		},
		{
			"from": [0.10876, 0.25, 4.61244],
			"to": [2.10876, 2.125, 11.11244],
			"rotation": {"angle": 45, "axis": "y", "origin": [8.10876, 0.5, 7.86244]},
			"faces": {
				"north": {"uv": [8, 2.75, 8.5, 3.25], "texture": "#0"},
				"east": {"uv": [2.75, 5.75, 4.5, 6.25], "texture": "#0"},
				"south": {"uv": [8, 3.25, 8.5, 3.75], "texture": "#0"},
				"west": {"uv": [4.5, 5.75, 6.25, 6.25], "texture": "#0"},
				"up": {"uv": [1, 7.25, 0.5, 5.5], "texture": "#0"},
				"down": {"uv": [1.5, 5.5, 1, 7.25], "texture": "#0"}
			}
		},
		{
			"from": [-0.14124, 0, 7.23744],
			"to": [2.35876, 2.375, 8.23744],
			"rotation": {"angle": 45, "axis": "y", "origin": [8.10876, 0.5, 7.86244]},
			"faces": {
				"north": {"uv": [5.25, 7.5, 6, 8], "texture": "#0"},
				"east": {"uv": [5, 9.5, 5.25, 10], "texture": "#0"},
				"south": {"uv": [6, 7.5, 6.75, 8], "texture": "#0"},
				"west": {"uv": [5.25, 9.5, 5.5, 10], "texture": "#0"},
				"up": {"uv": [9.25, 5.25, 8.5, 5], "texture": "#0"},
				"down": {"uv": [9.25, 5.25, 8.5, 5.5], "texture": "#0"}
			}
		},
		{
			"from": [4.10876, 0.5, 5.36244],
			"to": [4.85876, 2, 10.36244],
			"rotation": {"angle": 45, "axis": "y", "origin": [8.10876, 0.5, 7.86244]},
			"faces": {
				"north": {"uv": [0.75, 9, 1, 9.5], "texture": "#0"},
				"east": {"uv": [3.75, 6.75, 5, 7.25], "texture": "#0"},
				"south": {"uv": [2, 9, 2.25, 9.5], "texture": "#0"},
				"west": {"uv": [5, 6.75, 6.25, 7.25], "texture": "#0"},
				"up": {"uv": [1.75, 6.75, 1.5, 5.5], "texture": "#0"},
				"down": {"uv": [1, 7.75, 0.75, 9], "texture": "#0"}
			}
		},
		{
			"from": [3.85876, 0.25, 6.11244],
			"to": [5.10876, 2.25, 6.98744],
			"rotation": {"angle": 45, "axis": "y", "origin": [8.10876, 0.5, 7.86244]},
			"faces": {
				"north": {"uv": [7, 9, 7.25, 9.5], "texture": "#0"},
				"east": {"uv": [7.75, 9, 8, 9.5], "texture": "#0"},
				"south": {"uv": [8, 9, 8.25, 9.5], "texture": "#0"},
				"west": {"uv": [8.25, 9, 8.5, 9.5], "texture": "#0"},
				"up": {"uv": [9.75, 2.75, 9.5, 2.5], "texture": "#0"},
				"down": {"uv": [9.75, 2.75, 9.5, 3], "texture": "#0"}
			}
		},
		{
			"from": [3.85876, 0.25, 7.23744],
			"to": [5.10876, 2.25, 7.73744],
			"rotation": {"angle": 45, "axis": "y", "origin": [8.10876, 0.5, 7.86244]},
			"faces": {
				"north": {"uv": [8.5, 9, 8.75, 9.5], "texture": "#0"},
				"east": {"uv": [8.75, 9, 9, 9.5], "texture": "#0"},
				"south": {"uv": [9, 9, 9.25, 9.5], "texture": "#0"},
				"west": {"uv": [9, 6.5, 9.25, 7], "texture": "#0"},
				"up": {"uv": [9.75, 3.25, 9.5, 3], "texture": "#0"},
				"down": {"uv": [9.75, 3.25, 9.5, 3.5], "texture": "#0"}
			}
		},
		{
			"from": [3.85876, 0.25, 7.98744],
			"to": [5.10876, 2.25, 8.48744],
			"rotation": {"angle": 45, "axis": "y", "origin": [8.10876, 0.5, 7.86244]},
			"faces": {
				"north": {"uv": [9, 7, 9.25, 7.5], "texture": "#0"},
				"east": {"uv": [9, 7.5, 9.25, 8], "texture": "#0"},
				"south": {"uv": [9, 8, 9.25, 8.5], "texture": "#0"},
				"west": {"uv": [0.25, 9.25, 0.5, 9.75], "texture": "#0"},
				"up": {"uv": [9.75, 3.75, 9.5, 3.5], "texture": "#0"},
				"down": {"uv": [9.75, 3.75, 9.5, 4], "texture": "#0"}
			}
		},
		{
			"from": [3.85876, 0.25, 8.73744],
			"to": [5.10876, 2.25, 9.61244],
			"rotation": {"angle": 45, "axis": "y", "origin": [8.10876, 0.5, 7.86244]},
			"faces": {
				"north": {"uv": [0.5, 9.25, 0.75, 9.75], "texture": "#0"},
				"east": {"uv": [1, 9.25, 1.25, 9.75], "texture": "#0"},
				"south": {"uv": [1.25, 9.25, 1.5, 9.75], "texture": "#0"},
				"west": {"uv": [1.75, 9.25, 2, 9.75], "texture": "#0"},
				"up": {"uv": [9.75, 4.25, 9.5, 4], "texture": "#0"},
				"down": {"uv": [9.75, 4.25, 9.5, 4.5], "texture": "#0"}
			}
		},
		{
			"from": [5.60876, 0.75, -1.17005],
			"to": [7.10876, 1.25, 0.07995],
			"rotation": {"angle": 45, "axis": "y", "origin": [8.10876, 0.5, 8.07995]},
			"faces": {
				"north": {"uv": [8.75, 3, 9.25, 3.25], "texture": "#0"},
				"east": {"uv": [9.5, 9.5, 9.75, 9.75], "texture": "#0"},
				"south": {"uv": [8.75, 3.25, 9.25, 3.5], "texture": "#0"},
				"west": {"uv": [9.5, 0, 9.75, 0.25], "texture": "#0"},
				"up": {"uv": [9.25, 3.75, 8.75, 3.5], "texture": "#0"},
				"down": {"uv": [9.25, 3.75, 8.75, 4], "texture": "#0"}
			}
		},
		{
			"from": [9.10876, 0.75, -1.17005],
			"to": [10.60876, 1.25, 0.07995],
			"rotation": {"angle": 45, "axis": "y", "origin": [8.10876, 0.5, 8.07995]},
			"faces": {
				"north": {"uv": [8.75, 5.5, 9.25, 5.75], "texture": "#0"},
				"east": {"uv": [9.5, 0.25, 9.75, 0.5], "texture": "#0"},
				"south": {"uv": [8.75, 5.75, 9.25, 6], "texture": "#0"},
				"west": {"uv": [9.5, 0.5, 9.75, 0.75], "texture": "#0"},
				"up": {"uv": [9.25, 6.25, 8.75, 6], "texture": "#0"},
				"down": {"uv": [9.25, 6.25, 8.75, 6.5], "texture": "#0"}
			}
		},
		{
			"from": [7.35876, 1, -1.42005],
			"to": [8.85876, 1.5, 0.07995],
			"rotation": {"angle": 45, "axis": "y", "origin": [8.10876, 0.75, 8.07995]},
			"faces": {
				"north": {"uv": [8.75, 4, 9.25, 4.25], "texture": "#0"},
				"east": {"uv": [8.75, 4.25, 9.25, 4.5], "texture": "#0"},
				"south": {"uv": [8.75, 4.5, 9.25, 4.75], "texture": "#0"},
				"west": {"uv": [8.75, 4.75, 9.25, 5], "texture": "#0"},
				"up": {"uv": [4.25, 8.75, 3.75, 8.25], "texture": "#0"},
				"down": {"uv": [4.75, 8.25, 4.25, 8.75], "texture": "#0"}
			}
		},
		{
			"from": [7.25, 1, 15.81739],
			"to": [8.75, 1.5, 17.31739],
			"rotation": {"angle": 0, "axis": "y", "origin": [8, 8.25, 22.81739]},
			"faces": {
				"north": {"uv": [7.75, 8.75, 8.25, 9], "texture": "#0"},
				"east": {"uv": [8.25, 8.75, 8.75, 9], "texture": "#0"},
				"south": {"uv": [8.75, 8.75, 9.25, 9], "texture": "#0"},
				"west": {"uv": [8.75, 0, 9.25, 0.25], "texture": "#0"},
				"up": {"uv": [1.5, 8.75, 1, 8.25], "texture": "#0"},
				"down": {"uv": [2.5, 8.25, 2, 8.75], "texture": "#0"}
			}
		},
		{
			"from": [9, 0.75, 15.81739],
			"to": [10.5, 1.25, 17.06739],
			"rotation": {"angle": 0, "axis": "y", "origin": [9.75, 8, 22.81739]},
			"faces": {
				"north": {"uv": [8.75, 0.25, 9.25, 0.5], "texture": "#0"},
				"east": {"uv": [8.25, 9.5, 8.5, 9.75], "texture": "#0"},
				"south": {"uv": [8.75, 0.5, 9.25, 0.75], "texture": "#0"},
				"west": {"uv": [8.5, 9.5, 8.75, 9.75], "texture": "#0"},
				"up": {"uv": [9.25, 1, 8.75, 0.75], "texture": "#0"},
				"down": {"uv": [9.25, 1, 8.75, 1.25], "texture": "#0"}
			}
		},
		{
			"from": [5.5, 0.75, 15.81739],
			"to": [7, 1.25, 17.06739],
			"rotation": {"angle": 0, "axis": "y", "origin": [6.25, 8, 22.81739]},
			"faces": {
				"north": {"uv": [8.75, 1.25, 9.25, 1.5], "texture": "#0"},
				"east": {"uv": [8.75, 9.5, 9, 9.75], "texture": "#0"},
				"south": {"uv": [8.75, 1.5, 9.25, 1.75], "texture": "#0"},
				"west": {"uv": [9, 9.5, 9.25, 9.75], "texture": "#0"},
				"up": {"uv": [9.25, 2.75, 8.75, 2.5], "texture": "#0"},
				"down": {"uv": [9.25, 2.75, 8.75, 3], "texture": "#0"}
			}
		},
		{
			"from": [15.89124, 0.75, 9.07995],
			"to": [17.14124, 1.25, 10.57995],
			"rotation": {"angle": 45, "axis": "y", "origin": [7.89124, 0.5, 8.07995]},
			"faces": {
				"north": {"uv": [7.75, 9.5, 8, 9.75], "texture": "#0"},
				"east": {"uv": [6.25, 8.75, 6.75, 9], "texture": "#0"},
				"south": {"uv": [8, 9.5, 8.25, 9.75], "texture": "#0"},
				"west": {"uv": [6.75, 8.75, 7.25, 9], "texture": "#0"},
				"up": {"uv": [7.5, 9.25, 7.25, 8.75], "texture": "#0"},
				"down": {"uv": [7.75, 8.75, 7.5, 9.25], "texture": "#0"}
			}
		},
		{
			"from": [15.89124, 1, 7.32995],
			"to": [17.39124, 1.5, 8.82995],
			"rotation": {"angle": 45, "axis": "y", "origin": [7.89124, 0.75, 8.07995]},
			"faces": {
				"north": {"uv": [6.75, 7.5, 7.25, 7.75], "texture": "#0"},
				"east": {"uv": [2, 8.75, 2.5, 9], "texture": "#0"},
				"south": {"uv": [3.75, 8.75, 4.25, 9], "texture": "#0"},
				"west": {"uv": [4.25, 8.75, 4.75, 9], "texture": "#0"},
				"up": {"uv": [8.5, 7.75, 8, 7.25], "texture": "#0"},
				"down": {"uv": [0.5, 8.25, 0, 8.75], "texture": "#0"}
			}
		},
		{
			"from": [15.89124, 0.75, 5.57995],
			"to": [17.14124, 1.25, 7.07995],
			"rotation": {"angle": 45, "axis": "y", "origin": [7.89124, 0.5, 8.07995]},
			"faces": {
				"north": {"uv": [8, 7.75, 8.25, 8], "texture": "#0"},
				"east": {"uv": [4.75, 8.75, 5.25, 9], "texture": "#0"},
				"south": {"uv": [7, 9.5, 7.25, 9.75], "texture": "#0"},
				"west": {"uv": [5.25, 8.75, 5.75, 9], "texture": "#0"},
				"up": {"uv": [6, 9.25, 5.75, 8.75], "texture": "#0"},
				"down": {"uv": [6.25, 8.75, 6, 9.25], "texture": "#0"}
			}
		}
	],
	"display": {
		"thirdperson_righthand": {
			"translation": [0, 2.5, -3.5],
			"scale": [0.4, 0.4, 0.4]
		},
		"thirdperson_lefthand": {
			"translation": [0, 2.5, -3.5],
			"scale": [0.4, 0.4, 0.4]
		},
		"firstperson_righthand": {
			"rotation": [30, -20, 50],
			"translation": [-0.75, 5.75, 0],
			"scale": [0.5, 0.6, 0.6]
		},
		"firstperson_lefthand": {
			"rotation": [30, -20, 50],
			"translation": [-0.75, 5.75, 0],
			"scale": [0.5, 0.6, 0.6]
		},
		"ground": {
			"translation": [0, 2.75, 0],
			"scale": [0.3, 0.3, 0.3]
		},
		"gui": {
			"rotation": [90, -20, 31],
			"translation": [-2.25, 1, 0],
			"scale": [0.75, 0.75, 0.75]
		},
		"head": {
			"translation": [0, 9.25, 0],
			"scale": [0.4, 0.4, 0.4]
		},
		"fixed": {
			"rotation": [-90, -180, 0],
			"translation": [0, 0.25, -7.75]
		}
	},
	"groups": [
		{
			"name": "group",
			"origin": [8, 8, 8],
			"children": [0, 1, 2, 3, 4, 5, 6, 7, 8, 9, 10, 11, 12, 13, 14, 15, 16, 17, 18, 19, 20, 21, 22]
		},
		{
			"name": "group",
			"origin": [8, 8, 8],
			"children": [23, 24, 25, 26, 27, 28, 29, 30, 31, 32, 33, 34, 35, 36, 37, 38]
		},
		{
			"name": "group",
			"origin": [7.89124, 0.5, 8.07995],
			"children": [39, 40, 41, 42, 43, 44, 45, 46, 47]
		},
		{
			"name": "group",
			"origin": [8.10876, 0.3125, 8.32995],
			"children": []
		}
	]
}