{
	"type": "tardis:quantiscope",
	"repair":false,
	"ingredients":[
		{"item":"tardis:circuits"},
		{"item":"minecraft:glass"},
		{"item":"tardis:ars_egg"},
		{"item":"minecraft:iron_trapdoor"}
	],
	"result":{
		"item":"tardis:ars_tablet"
	}
}