{
	"type": "tardis:quantiscope",
	"repair":false,
	"ingredients":[
		{"item":"tardis:artron_battery"},
		{"item":"tardis:xion_crystal"},
		{"item":"minecraft:glass"},
		{"item":"tardis:circuits"}
	],
	"result":{
		"item":"tardis:diagnostic_tool"
	}
}