{
  "processing_ticks": 200,
  "ingredients": [
    {
      "item": "tardis:blank_upgrade"
    },
    {
      "item": "tardis:circuits"
    },
    {
      "item": "minecraft:iron_door"
    },
    {
      "item": "minecraft:tripwire_hook"
    },
    {
      "item": "minecraft:gold_ingot"
    }
  ],
  "result": {
    "item": "tardis:upgrades/key_fob"
  },
  "repair": false,
  "type": "tardis:quantiscope"
}