{
  "processing_ticks": 200,
  "ingredients": [
    {
      "item": "tardis:blank_upgrade"
    },
    {
      "item": "minecraft:redstone"
    },
    {
      "item": "minecraft:ender_eye"
    },
    {
      "item": "tardis:circuits"
    }
  ],
  "result": {
    "item": "tardis:upgrades/time_link"
  },
  "repair": false,
  "type": "tardis:quantiscope"
}