{
  "type": "normal",
  "text": "Security Submenu. This is a submenu that holds security related functions. The Toggle Alarm protocol Turns on or off your time-ship's alarm. This is triggered when something your timeship deems hostile enters it. The Scan for Life Signs protocol counts all living beings inside your timeship. This is beneificial n the event your timeship is breacher unexpectedly. The Toggle Forcefield protocol toggles the Exterior Forcefield. This protects the pilots inside the timeship from being sucked out into space. This will NOT shield pilots from damage around the exterior, not will it prevent pilots being sucked out during flight."
}