{
  "type": "minecraft:crafting_shaped",
  "pattern": [
    "ixi",
    "cgc",
    "sis"
  ],
  "key": {
    "c":{
    	"item":"tardis:circuits"
    },
    "g":{
    	"item":"minecraft:glass"
    },
    "i": {
      "item": "minecraft:iron_ingot"
    },
    "s":{
    	"tag":"forge:concrete"
    },
    "x":{
    	"item":"tardis:xion_crystal"
    }
  },
  "result": {
    "item": "tardis:neutronic_spectrometer"
  }
}