{
	"credit": "Made with Blockbench",
	"texture_size": [32, 32],
	"textures": {
		"2": "tardis:item/sonics/mk1_handle"
	},
	"elements": [
		{
			"name": "octagon",
			"from": [1.96266, 2.9072, 6.95581],
			"to": [2.76774, 4.85082, 7.58294],
			"rotation": {"angle": 45, "axis": "z", "origin": [8, 9.51381, 6.0576]},
			"faces": {
				"north": {"uv": [4.5, 4.5, 5, 5.5], "texture": "#2"},
				"east": {"uv": [4.5, 3.5, 5, 4.5], "texture": "#2"},
				"south": {"uv": [5, 5, 5.5, 6], "texture": "#2"},
				"west": {"uv": [5, 2, 5.5, 3], "texture": "#2"},
				"up": {"uv": [2.5, 3.5, 2, 3], "texture": "#2"},
				"down": {"uv": [4.5, 3.5, 4, 4], "texture": "#2"}
			}
		},
		{
			"name": "octagon",
			"from": [7.59746, 0.57319, 6.95581],
			"to": [8.40254, 2.51681, 7.58294],
			"rotation": {"angle": 0, "axis": "y", "origin": [8, 9.51381, 6.0576]},
			"faces": {
				"north": {"uv": [5, 3, 5.5, 4], "texture": "#2"},
				"east": {"uv": [5, 4, 5.5, 5], "texture": "#2"},
				"south": {"uv": [0, 5.5, 0.5, 6.5], "texture": "#2"},
				"west": {"uv": [0.5, 5.5, 1, 6.5], "texture": "#2"},
				"up": {"uv": [8.5, 5, 8, 4.5], "texture": "#2"},
				"down": {"uv": [8.5, 5, 8, 5.5], "texture": "#2"}
			}
		},
		{
			"name": "octagon",
			"from": [1.39339, 3.47647, 6.95581],
			"to": [3.33701, 4.28155, 7.58294],
			"rotation": {"angle": 45, "axis": "z", "origin": [8, 9.51381, 6.0576]},
			"faces": {
				"north": {"uv": [4, 2, 5, 2.5], "texture": "#2"},
				"east": {"uv": [8, 6, 8.5, 6.5], "texture": "#2"},
				"south": {"uv": [1, 5.5, 2, 6], "texture": "#2"},
				"west": {"uv": [8, 7, 8.5, 7.5], "texture": "#2"},
				"up": {"uv": [6.5, 6, 5.5, 5.5], "texture": "#2"},
				"down": {"uv": [6.5, 2, 5.5, 2.5], "texture": "#2"}
			}
		},
		{
			"name": "octagon",
			"from": [7.02819, 1.14246, 6.95581],
			"to": [8.97181, 1.94754, 7.58294],
			"rotation": {"angle": 0, "axis": "y", "origin": [8, 9.51381, 6.0576]},
			"faces": {
				"north": {"uv": [5.5, 2.5, 6.5, 3], "texture": "#2"},
				"east": {"uv": [0, 8.5, 0.5, 9], "texture": "#2"},
				"south": {"uv": [5.5, 3, 6.5, 3.5], "texture": "#2"},
				"west": {"uv": [0.5, 8.5, 1, 9], "texture": "#2"},
				"up": {"uv": [6.5, 4, 5.5, 3.5], "texture": "#2"},
				"down": {"uv": [6.5, 4, 5.5, 4.5], "texture": "#2"}
			}
		},
		{
			"name": "octagon",
			"from": [1.96266, 2.9072, 7.58081],
			"to": [2.76774, 4.85082, 12.08294],
			"rotation": {"angle": 45, "axis": "z", "origin": [8, 9.51381, 6.0576]},
			"faces": {
				"north": {"uv": [4.5, 5.5, 5, 6.5], "texture": "#2"},
				"east": {"uv": [0, 0, 2.5, 1], "texture": "#2"},
				"south": {"uv": [5.5, 4.5, 6, 5.5], "texture": "#2"},
				"west": {"uv": [0, 1, 2.5, 2], "texture": "#2"},
				"up": {"uv": [3.5, 6, 3, 3.5], "texture": "#2"},
				"down": {"uv": [4, 3.5, 3.5, 6], "texture": "#2"}
			}
		},
		{
			"name": "octagon",
			"from": [7.59746, 0.57319, 7.58081],
			"to": [8.40254, 2.51681, 12.08294],
			"rotation": {"angle": 0, "axis": "y", "origin": [8, 9.51381, 6.0576]},
			"faces": {
				"north": {"uv": [1, 6, 1.5, 7], "texture": "#2"},
				"east": {"uv": [0, 2, 2.5, 3], "texture": "#2"},
				"south": {"uv": [1.5, 6, 2, 7], "texture": "#2"},
				"west": {"uv": [2.5, 2.5, 5, 3.5], "texture": "#2"},
				"up": {"uv": [4, 2.5, 3.5, 0], "texture": "#2"},
				"down": {"uv": [4.5, 4, 4, 6.5], "texture": "#2"}
			}
		},
		{
			"name": "octagon",
			"from": [1.39339, 3.47647, 7.58081],
			"to": [3.33701, 4.28155, 12.08294],
			"rotation": {"angle": 45, "axis": "z", "origin": [8, 9.51381, 6.0576]},
			"faces": {
				"north": {"uv": [2, 6, 3, 6.5], "texture": "#2"},
				"east": {"uv": [4, 0, 6.5, 0.5], "texture": "#2"},
				"south": {"uv": [3, 6, 4, 6.5], "texture": "#2"},
				"west": {"uv": [4, 0.5, 6.5, 1], "texture": "#2"},
				"up": {"uv": [3.5, 2.5, 2.5, 0], "texture": "#2"},
				"down": {"uv": [1, 3, 0, 5.5], "texture": "#2"}
			}
		},
		{
			"name": "octagon",
			"from": [7.02819, 1.14246, 7.58081],
			"to": [8.97181, 1.94754, 12.08294],
			"rotation": {"angle": 0, "axis": "y", "origin": [8, 9.51381, 6.0576]},
			"faces": {
				"north": {"uv": [5, 6, 6, 6.5], "texture": "#2"},
				"east": {"uv": [4, 1, 6.5, 1.5], "texture": "#2"},
				"south": {"uv": [6, 6, 7, 6.5], "texture": "#2"},
				"west": {"uv": [4, 1.5, 6.5, 2], "texture": "#2"},
				"up": {"uv": [2, 5.5, 1, 3], "texture": "#2"},
				"down": {"uv": [3, 3.5, 2, 6], "texture": "#2"}
			}
		},
		{
			"name": "octagon",
			"from": [1.96266, 2.9072, 12.58081],
			"to": [2.76774, 4.85082, 13.33294],
			"rotation": {"angle": 45, "axis": "z", "origin": [8, 9.51381, 6.0576]},
			"faces": {
				"north": {"uv": [6, 4.5, 6.5, 5.5], "texture": "#2"},
				"east": {"uv": [0, 6.5, 0.5, 7.5], "texture": "#2"},
				"south": {"uv": [0.5, 6.5, 1, 7.5], "texture": "#2"},
				"west": {"uv": [2, 6.5, 2.5, 7.5], "texture": "#2"},
				"up": {"uv": [2.5, 9, 2, 8.5], "texture": "#2"},
				"down": {"uv": [3, 8.5, 2.5, 9], "texture": "#2"}
			}
		},
		{
			"name": "octagon",
			"from": [7.59746, 0.57319, 12.58081],
			"to": [8.40254, 2.51681, 13.33294],
			"rotation": {"angle": 0, "axis": "y", "origin": [8, 9.51381, 6.0576]},
			"faces": {
				"north": {"uv": [2.5, 6.5, 3, 7.5], "texture": "#2"},
				"east": {"uv": [3, 6.5, 3.5, 7.5], "texture": "#2"},
				"south": {"uv": [3.5, 6.5, 4, 7.5], "texture": "#2"},
				"west": {"uv": [4, 6.5, 4.5, 7.5], "texture": "#2"},
				"up": {"uv": [3.5, 9, 3, 8.5], "texture": "#2"},
				"down": {"uv": [4, 8.5, 3.5, 9], "texture": "#2"}
			}
		},
		{
			"name": "octagon",
			"from": [1.39339, 3.47647, 12.58081],
			"to": [3.33701, 4.28155, 13.33294],
			"rotation": {"angle": 45, "axis": "z", "origin": [8, 9.51381, 6.0576]},
			"faces": {
				"north": {"uv": [4.5, 6.5, 5.5, 7], "texture": "#2"},
				"east": {"uv": [4, 8.5, 4.5, 9], "texture": "#2"},
				"south": {"uv": [5.5, 6.5, 6.5, 7], "texture": "#2"},
				"west": {"uv": [6, 8.5, 6.5, 9], "texture": "#2"},
				"up": {"uv": [7.5, 7, 6.5, 6.5], "texture": "#2"},
				"down": {"uv": [7.5, 0, 6.5, 0.5], "texture": "#2"}
			}
		},
		{
			"name": "octagon",
			"from": [7.02819, 1.14246, 12.58081],
			"to": [8.97181, 1.94754, 13.33294],
			"rotation": {"angle": 0, "axis": "y", "origin": [8, 9.51381, 6.0576]},
			"faces": {
				"north": {"uv": [6.5, 0.5, 7.5, 1], "texture": "#2"},
				"east": {"uv": [8, 8.5, 8.5, 9], "texture": "#2"},
				"south": {"uv": [6.5, 1, 7.5, 1.5], "texture": "#2"},
				"west": {"uv": [8.5, 8.5, 9, 9], "texture": "#2"},
				"up": {"uv": [7.5, 2, 6.5, 1.5], "texture": "#2"},
				"down": {"uv": [7.5, 2, 6.5, 2.5], "texture": "#2"}
			}
		},
		{
			"name": "octagon",
			"from": [2.44565, 2.79822, 11.8809],
			"to": [3.18632, 4.58636, 12.78285],
			"rotation": {"angle": 45, "axis": "z", "origin": [8, 8.87631, 6.58954]},
			"faces": {
				"north": {"uv": [6.5, 2.5, 7, 3.5], "texture": "#2"},
				"east": {"uv": [6.5, 3.5, 7, 4.5], "texture": "#2"},
				"south": {"uv": [6.5, 4.5, 7, 5.5], "texture": "#2"},
				"west": {"uv": [1, 7, 1.5, 8], "texture": "#2"},
				"up": {"uv": [9, 0.5, 8.5, 0], "texture": "#2"},
				"down": {"uv": [9, 0.5, 8.5, 1], "texture": "#2"}
			}
		},
		{
			"name": "octagon",
			"from": [7.62967, 0.65093, 11.8809],
			"to": [8.37033, 2.43907, 12.78285],
			"rotation": {"angle": 0, "axis": "y", "origin": [8, 8.87631, 6.58954]},
			"faces": {
				"north": {"uv": [1.5, 7, 2, 8], "texture": "#2"},
				"east": {"uv": [4.5, 7, 5, 8], "texture": "#2"},
				"south": {"uv": [5, 7, 5.5, 8], "texture": "#2"},
				"west": {"uv": [5.5, 7, 6, 8], "texture": "#2"},
				"up": {"uv": [9, 1.5, 8.5, 1], "texture": "#2"},
				"down": {"uv": [9, 1.5, 8.5, 2], "texture": "#2"}
			}
		},
		{
			"name": "octagon",
			"from": [1.92192, 3.32196, 11.8809],
			"to": [3.71005, 4.06262, 12.78285],
			"rotation": {"angle": 45, "axis": "z", "origin": [8, 8.87631, 6.58954]},
			"faces": {
				"north": {"uv": [6.5, 5.5, 7.5, 6], "texture": "#2"},
				"east": {"uv": [8.5, 2, 9, 2.5], "texture": "#2"},
				"south": {"uv": [6, 7, 7, 7.5], "texture": "#2"},
				"west": {"uv": [8.5, 4.5, 9, 5], "texture": "#2"},
				"up": {"uv": [8, 7.5, 7, 7], "texture": "#2"},
				"down": {"uv": [8, 2.5, 7, 3], "texture": "#2"}
			}
		},
		{
			"name": "octagon",
			"from": [7.10593, 1.17467, 11.8809],
			"to": [8.89407, 1.91533, 12.78285],
			"rotation": {"angle": 0, "axis": "y", "origin": [8, 8.87631, 6.58954]},
			"faces": {
				"north": {"uv": [7, 3, 8, 3.5], "texture": "#2"},
				"east": {"uv": [8.5, 5, 9, 5.5], "texture": "#2"},
				"south": {"uv": [7, 3.5, 8, 4], "texture": "#2"},
				"west": {"uv": [8.5, 5.5, 9, 6], "texture": "#2"},
				"up": {"uv": [8, 4.5, 7, 4], "texture": "#2"},
				"down": {"uv": [8, 4.5, 7, 5], "texture": "#2"}
			}
		},
		{
			"name": "octagon",
			"from": [2.44565, 2.79822, 13.25715],
			"to": [3.18632, 4.58636, 13.81285],
			"rotation": {"angle": 45, "axis": "z", "origin": [8, 8.87631, 6.65954]},
			"faces": {
				"north": {"uv": [0, 7.5, 0.5, 8.5], "texture": "#2"},
				"east": {"uv": [0.5, 7.5, 1, 8.5], "texture": "#2"},
				"south": {"uv": [2, 7.5, 2.5, 8.5], "texture": "#2"},
				"west": {"uv": [2.5, 7.5, 3, 8.5], "texture": "#2"},
				"up": {"uv": [9, 6.5, 8.5, 6], "texture": "#2"},
				"down": {"uv": [9, 6.5, 8.5, 7], "texture": "#2"}
			}
		},
		{
			"name": "octagon",
			"from": [7.62967, 0.65093, 13.25715],
			"to": [8.37033, 2.43907, 13.81285],
			"rotation": {"angle": 0, "axis": "y", "origin": [8, 8.87631, 6.65954]},
			"faces": {
				"north": {"uv": [3, 7.5, 3.5, 8.5], "texture": "#2"},
				"east": {"uv": [3.5, 7.5, 4, 8.5], "texture": "#2"},
				"south": {"uv": [4, 7.5, 4.5, 8.5], "texture": "#2"},
				"west": {"uv": [6, 7.5, 6.5, 8.5], "texture": "#2"},
				"up": {"uv": [9, 7.5, 8.5, 7], "texture": "#2"},
				"down": {"uv": [9, 7.5, 8.5, 8], "texture": "#2"}
			}
		},
		{
			"name": "octagon",
			"from": [1.92192, 3.32196, 13.25715],
			"to": [3.71005, 4.06262, 13.81285],
			"rotation": {"angle": 45, "axis": "z", "origin": [8, 8.87631, 6.65954]},
			"faces": {
				"north": {"uv": [7, 5, 8, 5.5], "texture": "#2"},
				"east": {"uv": [0, 9, 0.5, 9.5], "texture": "#2"},
				"south": {"uv": [7, 6, 8, 6.5], "texture": "#2"},
				"west": {"uv": [0.5, 9, 1, 9.5], "texture": "#2"},
				"up": {"uv": [7.5, 8, 6.5, 7.5], "texture": "#2"},
				"down": {"uv": [8.5, 7.5, 7.5, 8], "texture": "#2"}
			}
		},
		{
			"name": "octagon",
			"from": [7.10593, 1.17467, 13.25715],
			"to": [8.89407, 1.91533, 13.81285],
			"rotation": {"angle": 0, "axis": "y", "origin": [8, 8.87631, 6.65954]},
			"faces": {
				"north": {"uv": [7.5, 0, 8.5, 0.5], "texture": "#2"},
				"east": {"uv": [1, 9, 1.5, 9.5], "texture": "#2"},
				"south": {"uv": [7.5, 0.5, 8.5, 1], "texture": "#2"},
				"west": {"uv": [1.5, 9, 2, 9.5], "texture": "#2"},
				"up": {"uv": [8.5, 1.5, 7.5, 1], "texture": "#2"},
				"down": {"uv": [8.5, 1.5, 7.5, 2], "texture": "#2"}
			}
		},
		{
			"name": "octagon",
			"from": [1.44586, 3.0238, 13.80994],
			"to": [2.31986, 5.1338, 14.94756],
			"rotation": {"angle": 45, "axis": "z", "origin": [8, 10.19594, 5.26727]},
			"faces": {
				"north": {"uv": [1, 8, 1.5, 9], "texture": "#2"},
				"east": {"uv": [1.5, 8, 2, 9], "texture": "#2"},
				"south": {"uv": [4.5, 8, 5, 9], "texture": "#2"},
				"west": {"uv": [5, 8, 5.5, 9], "texture": "#2"},
				"up": {"uv": [2.5, 9.5, 2, 9], "texture": "#2"},
				"down": {"uv": [3, 9, 2.5, 9.5], "texture": "#2"}
			}
		},
		{
			"name": "octagon",
			"from": [7.563, 0.49, 13.80994],
			"to": [8.437, 2.6, 14.94756],
			"rotation": {"angle": 0, "axis": "y", "origin": [8, 10.19594, 5.26727]},
			"faces": {
				"north": {"uv": [5.5, 8, 6, 9], "texture": "#2"},
				"east": {"uv": [6.5, 8, 7, 9], "texture": "#2"},
				"south": {"uv": [7, 8, 7.5, 9], "texture": "#2"},
				"west": {"uv": [7.5, 8, 8, 9], "texture": "#2"},
				"up": {"uv": [3.5, 9.5, 3, 9], "texture": "#2"},
				"down": {"uv": [4, 9, 3.5, 9.5], "texture": "#2"}
			}
		},
		{
			"name": "octagon",
			"from": [0.82786, 3.64181, 13.80994],
			"to": [2.93786, 4.5158, 14.94756],
			"rotation": {"angle": 45, "axis": "z", "origin": [8, 10.19594, 5.26727]},
			"faces": {
				"north": {"uv": [7.5, 2, 8.5, 2.5], "texture": "#2"},
				"east": {"uv": [4, 9, 4.5, 9.5], "texture": "#2"},
				"south": {"uv": [7.5, 5.5, 8.5, 6], "texture": "#2"},
				"west": {"uv": [4.5, 9, 5, 9.5], "texture": "#2"},
				"up": {"uv": [8.5, 7, 7.5, 6.5], "texture": "#2"},
				"down": {"uv": [9, 8, 8, 8.5], "texture": "#2"}
			}
		},
		{
			"name": "octagon",
			"from": [6.945, 1.108, 13.80994],
			"to": [9.055, 1.982, 14.94756],
			"rotation": {"angle": 0, "axis": "y", "origin": [8, 10.19594, 5.26727]},
			"faces": {
				"north": {"uv": [8, 2.5, 9, 3], "texture": "#2"},
				"east": {"uv": [5, 9, 5.5, 9.5], "texture": "#2"},
				"south": {"uv": [8, 3, 9, 3.5], "texture": "#2"},
				"west": {"uv": [5.5, 9, 6, 9.5], "texture": "#2"},
				"up": {"uv": [9, 4, 8, 3.5], "texture": "#2"},
				"down": {"uv": [9, 4, 8, 4.5], "texture": "#2"}
			}
		}
	],
	"display": {
		"thirdperson_righthand": {
			"rotation": [90, 0, 0],
			"translation": [0, 0, 3],
			"scale": [0.5, 0.5, 0.5]
		},
		"thirdperson_lefthand": {
			"rotation": [90, 0, 0],
			"translation": [0, 0, 3],
			"scale": [0.5, 0.5, 0.5]
		},
		"firstperson_righthand": {
			"rotation": [90, 0, 30]
		},
		"firstperson_lefthand": {
			"rotation": [90, 0, 30]
		},
		"ground": {
			"translation": [0, 4, 0]
		},
		"gui": {
			"rotation": [90, 0, 30],
			"translation": [-3, 3, 0]
		},
		"fixed": {
			"rotation": [90, 45, 0],
			"translation": [1.25, -1.75, 6]
		}
	}
}