{
  "parent": "tardis:space/root",
  "display": {
    "icon": {
      "item": "tardis:space_chest"
    },
    "title": {
      "translate": "advancements.tardis.title.mission.drone_station.complete"
    },
    "description": {
      "translate": "advancements.tardis.desc.mission.drone_station.complete"
    },
    "frame": "task",
    "show_toast": true,
    "announce_to_chat": true,
    "hidden": false
  },
  "criteria": {
    "drone_mission_complete": {
      "trigger": "tardis:drone_mission_complete"
    }
  },
  "rewards": {
    "experience": 50
  }
}