{
  "type": "normal",
  "text": "Interior Properties Submenu. This menu holds customization options for your timeship. The Interior Hum allows you to adjust your timeship's ambience. The Light Level allows your to adjust the light levels inside your timeship. The Console Variants allow you to adjust the aesthetic textures for that unit. The Flight Sound Schemes adjusts the in-flight take off, flight loop and landing sounds for the Tardis"
}