{
    "type": "tardis:alembic",
	"required_fluid": 500,
	"progress_ticks": 1,
	"ingredient":{
		"item":"minecraft:glass_bottle",
		"count": 1
	},
	"result":{
		"special":"fluid_collection",
		"fluid_collection_item":"tardis:mercury_bottle",
		"count": 1
	}
}