{
  "alarm_low": {
    "subtitle": "subtitle.tardis.alarm_low",
    "sounds": [
      "tardis:tardis/alarm_low"
    ]
  },
  "ambient_creaks": {
    "subtitle": "subtitle.tardis.ambient_creaks",
    "sounds": [
      "tardis:ambient/creaks_loop"
    ]
  },
  "bessie_drive": {
    "subtitle": "subtitle.tardis.bessie_drive",
    "sounds": [
      "tardis:entity/transport/bessie_drive"
    ]
  },
  "bessie_horn": {
    "subtitle": "subtitle.tardis.bessie_horn",
    "sounds": [
      "tardis:entity/transport/bessie_horn"
    ]
  },
  "cant_start": {
    "subtitle": "subtitle.tardis.cant_start",
    "sounds": [
      "tardis:tardis/tardis_cant_start"
    ]
  },
  "car_lock": {
    "subtitle": "subtitle.tardis.car_lock",
    "sounds": [
      "tardis:tardis/car_lock"
    ]
  },
  "communicator_beep": {
    "subtitle": "subtitle.tardis.communicator_beep",
    "sounds": [
      "tardis:tardis/console/communicator_beep"
    ]
  },
  "communicator_phone_pickup": {
    "subtitle": "subtitle.tardis.communicator_phone_pickup",
    "sounds": [
      "tardis:tardis/console/communicator_phone_pickup"
    ]
  },
  "communicator_ring": {
    "subtitle": "subtitle.tardis.communicator_ring",
    "sounds": [
      "tardis:tardis/console/communicator_ring"
    ]
  },
  "communicator_steam": {
    "subtitle": "subtitle.tardis.communicator_steam",
    "sounds": [
      "tardis:tardis/console/communicator_steam"
    ]
  },
  "dalek_arm": {
    "subtitle": "subtitle.tardis.dalek_arm",
    "sounds": [
      "tardis:entity/dalek/dalek_arm"
    ]
  },
  "dalek_death": {
    "subtitle": "subtitle.tardis.dalek_death",
    "sounds": [
      "tardis:entity/dalek/dalek_death"
    ]
  },
  "dalek_exterminate": {
    "subtitle": "subtitle.tardis.dalek_exterminate",
    "sounds": [
      "tardis:entity/dalek/dalek_exterminate"
    ]
  },
  "dalek_fire": {
    "subtitle": "subtitle.tardis.dalek_fire",
    "sounds": [
      "tardis:entity/dalek/dalek_laser"
    ]
  },
  "dalek_fire_extended": {
    "subtitle": "subtitle.tardis.dalek_fire",
    "sounds": [
      "tardis:entity/dalek/dalek_laser_extended"
    ]
  },
  "dalek_hover": {
    "subtitle": "subtitle.tardis.dalek_hover",
    "sounds": [
      "tardis:entity/dalek/dalek_hover"
    ]
  },
  "dalek_moves": {
    "subtitle": "subtitle.tardis.dalek_moves",
    "sounds": [
      "tardis:entity/dalek/dalek_moves"
    ]
  },
  "dalek_sw_aim": {
    "subtitle": "subtitle.tardis.dalek_sw_aim",
    "sounds": [
      "tardis:entity/dalek/special_weapon/dalek_sw_aim"
    ]
  },
  "dalek_sw_fire": {
    "subtitle": "subtitle.tardis.dalek_sw_fire",
    "sounds": [
      "tardis:entity/dalek/special_weapon/dalek_sw_fire"
    ]
  },
  "dalek_sw_hit_explode": {
    "subtitle": "subtitle.tardis.dalek_sw_hit_explode",
    "sounds": [
      "tardis:entity/dalek/special_weapon/dalek_sw_hit_explode"
    ]
  },
  "dimension": {
    "subtitle": "subtitle.tardis.dimension",
    "sounds": [
      "tardis:tardis/console/dimension_one",
      "tardis:tardis/console/dimension_two",
      "tardis:tardis/console/dimension_three"
    ]
  },
  "direction": {
    "subtitle": "subtitle.tardis.direction",
    "sounds": [
      "tardis:tardis/console/direction_one",
      "tardis:tardis/console/direction_two",
      "tardis:tardis/console/direction_three"
    ]
  },
  "door_close": {
    "subtitle": "subtitle.tardis.door_close",
    "sounds": [
      "tardis:tardis/door_close"
    ]
  },
  "door_knock": {
    "subtitle": "subtitle.tardis.door_knock",
    "sounds": [
      "tardis:tardis/door_knock"
    ]
  },
  "door_lock": {
    "subtitle": "subtitle.tardis.door_lock",
    "sounds": [
      "tardis:tardis/door_lock"
    ]
  },
  "door_open": {
    "subtitle": "subtitle.tardis.door_open",
    "sounds": [
      "tardis:tardis/door_open"
    ]
  },
  "door_unlock": {
    "subtitle": "subtitle.tardis.door_unlock",
    "sounds": [
      "tardis:tardis/door_unlock"
    ]
  },
  "electric_arc": {
    "subtitle": "subtitle.tardis.electric_arc",
    "sounds": [
      "tardis:ambient/electric_arc"
    ]
  },
  "electric_spark": {
    "subtitle": "subtitle.tardis.electric_spark",
    "sounds": [
      "tardis:ambient/electric_spark_a",
      "tardis:ambient/electric_spark_b",
      "tardis:ambient/electric_spark_c"
    ]
  },
  "eye_monitor_interact": {
    "subtitle": "subtitle.tardis.eye_monitor_interact",
    "sounds": [
      "tardis:tardis/monitor/eye_monitor_interact"
    ]
  },
  "gadget_menu_open": {
    "subtitle": "subtitle.tardis.gadget_menu_open",
    "sounds": [
      "tardis:item/gadget_menu_open"
    ]
  },
  "generic_one": {
    "subtitle": "subtitle.tardis.generic_control",
    "sounds": [
      "tardis:tardis/console/generic_one"
    ]
  },
  "generic_two": {
    "subtitle": "subtitle.tardis.generic_control",
    "sounds": [
      "tardis:tardis/console/generic_two"
    ]
  },
  "generic_three": {
    "subtitle": "subtitle.tardis.generic_control",
    "sounds": [
      "tardis:tardis/console/generic_three"
    ]
  },
  "handbrake_engage": {
    "subtitle": "subtitle.tardis.handbrake_engage",
    "sounds": [
      "tardis:tardis/console/handbrake_engage"
    ]
  },
  "handbrake_release": {
    "subtitle": "subtitle.tardis.handbrake_release",
    "sounds": [
      "tardis:tardis/console/handbrake_release"
    ]
  },
  "junk_land": {
    "subtitle": "subtitle.tardis.tardis_land",
    "sounds": [
      "tardis:tardis/junk_land"
    ]
  },
  "junk_takeoff": {
    "subtitle": "subtitle.tardis.tardis_takeoff",
    "sounds": [
      "tardis:tardis/junk_takeoff"
    ]
  },
  "land_tv": {
    "subtitle": "subtitle.tardis.tardis_land",
    "sounds": [
      "tardis:tardis/tardis_land_tv"
    ]
  },
  "landing_type_down": {
    "subtitle": "subtitle.tardis.control_landing_type",
    "sounds": [
      "tardis:tardis/console/landing_type_down"
    ]
  },
  "landing_type_up": {
    "subtitle": "subtitle.tardis.control_landing_type",
    "sounds": [
      "tardis:tardis/console/landing_type_up"
    ]
  },
  "laser_gun_fire": {
    "subtitle": "subtitle.tardis.laser_gun_fire",
    "sounds": [
      "tardis:item/laser_gun_fire"
    ]
  },
  "master_land": {
    "subtitle": "subtitle.tardis.tardis_land",
    "sounds": [
      "tardis:tardis/master_land"
    ]
  },
  "master_takeoff": {
    "subtitle": "subtitle.tardis.tardis_takeoff",
    "sounds": [
      "tardis:tardis/master_takeoff"
    ]
  },
  "paper_drop": {
    "subtitle": "subtitle.tardis.paper_drop",
    "sounds": [
      "tardis:blocks/paper_drop"
    ]
  },
  "power_down": {
    "subtitle": "subtitle.tardis.power_down",
    "sounds": [
      "tardis:tardis/power_down"
    ]
  },
  "randomiser": {
    "subtitle": "subtitle.tardis.randomiser",
    "sounds": [
      "tardis:tardis/console/randomiser"
    ]
  },
  "reached_destination": {
    "subtitle": "subtitle.tardis.reached_destination",
    "sounds": [
      "tardis:tardis/reached_destination"
    ]
  },
  "refuel_start": {
    "subtitle": "subtitle.tardis.refuel_start",
    "sounds": [
      "tardis:tardis/console/refuel_start"
    ]
  },
  "refuel_stop": {
    "subtitle": "subtitle.tardis.refuel_stop",
    "sounds": [
      "tardis:tardis/console/refuel_stop"
    ]
  },
  "remote_accept": {
    "subtitle": "subtitle.tardis.remote_accept",
    "sounds": [
      "tardis:item/remote_accept"
    ]
  },
  "rotor_end": {
    "subtitle": "subtitle.tardis.rotor_end",
    "sounds": [
      "tardis:tardis/rotor_end"
    ]
  },
  "rotor_start": {
    "subtitle": "subtitle.tardis.rotor_start",
    "sounds": [
      "tardis:tardis/rotor_start"
    ]
  },
  "rotor_tick": {
    "subtitle": "subtitle.tardis.rotor_tick",
    "sounds": [
      "tardis:tardis/rotor_tick"
    ]
  },
  "screen_beep_single": {
    "subtitle": "subtitle.tardis.screen_beep_single",
    "sounds": [
      "tardis:tardis/console/screen_beep_single"
    ]
  },
  "shield_hum": {
    "subtitle": "subtitle.tardis.shield_hum",
    "sounds": [
      {
        "name": "tardis:shared/shield_hum",
        "stream": true
      }
    ]
  },
  "single_cloister": {
    "subtitle": "subtitle.tardis.single_cloister",
    "sounds": [
      "tardis:tardis/console/single_cloister"
    ]
  },
  "snap": {
    "subtitle": "subtitle.tardis.snap",
    "sounds": [
      "tardis:tardis/snap"
    ]
  },
  "sonic_broken": {
    "subtitle": "subtitle.tardis.sonic_broken",
    "sounds": [
      "tardis:sonic/sonic_broken"
    ]
  },
  "sonic_fail": {
    "subtitle": "subtitle.tardis.sonic_fail",
    "sounds": [
      "tardis:sonic/sonic_fail"
    ]
  },
  "sonic_generic": {
    "subtitle": "subtitle.tardis.sonic_generic",
    "sounds": [
      "tardis:sonic/sonic_generic"
    ]
  },
  "sonic_mode_change": {
    "subtitle": "subtitle.tardis.sonic_mode_change",
    "sounds": [
      "tardis:sonic/sonic_mode_change"
    ]
  },
  "sonic_tuning": {
    "subtitle": "subtitle.tardis.sonic_tuning",
    "sounds": [
      "tardis:sonic/sonic_tuning"
    ]
  },
  "space_ambient_loop": {
    "subtitle": "subtitle.tardis.space_ambient_loop",
    "sounds": [
      {
        "name": "tardis:ambient/space_ambient_loop",
        "volume": 0.1,
        "stream": true
      }
    ]
  },
  "stabilizer_off": {
    "subtitle": "subtitle.tardis.stabilizer_off",
    "sounds": [
      "tardis:tardis/console/stabilizer_off"
    ]
  },
  "stabilizer_on": {
    "subtitle": "subtitle.tardis.stabilizer_on",
    "sounds": [
      "tardis:tardis/console/stabilizer_on"
    ]
  },
  "steam_hiss": {
    "subtitle": "subtitle.tardis.steam_hiss",
    "sounds": [
      "tardis:ambient/steam_hiss_001",
      "tardis:ambient/steam_hiss_002",
      "tardis:ambient/steam_hiss_003",
      "tardis:ambient/steam_hiss_004"
    ]
  },
  "steampunk_monitor_interact": {
    "subtitle": "subtitle.tardis.steampunk_monitor_interact",
    "sounds": [
      "tardis:tardis/monitor/steampunk_monitor_interact"
    ]
  },
  "subsystems_off": {
    "subtitle": "subtitle.tardis.subsystems_off",
    "sounds": [
      "tardis:tardis/subsystems_off"
    ]
  },
  "subsystems_on": {
    "subtitle": "subtitle.tardis.subsystems_on",
    "sounds": [
      "tardis:tardis/subsystems_on"
    ]
  },
  "takeoff_tv": {
    "subtitle": "subtitle.tardis.tardis_takeoff",
    "sounds": [
      "tardis:tardis/tardis_takeoff_tv"
    ]
  },
  "tardis_first_entrance": {
    "subtitle": "subtitle.tardis.tardis_first_entrance",
    "sounds": [
      {
        "name": "tardis:tardis/tardis_first_entrance",
        "stream": true
      }
    ]
  },
  "tardis_fly_loop": {
    "subtitle": "subtitle.tardis.tardis_fly_loop",
    "sounds": [
      "tardis:tardis/tardis_fly_loop"
    ]
  },
  "fly_loop_tv": {
    "subtitle": "subtitle.tardis.tardis_fly_loop",
    "sounds": [
      "tardis:tardis/fly_loop_tv"
    ]
  },
  "tardis_hum_63": {
    "subtitle": "subtitle.tardis.tardis_hum",
    "sounds": [
      {
        "name": "tardis:hums/tardis_hum_63",
        "stream": true
      }
    ]
  },
  "tardis_hum_70": {
    "subtitle": "subtitle.tardis.tardis_hum",
    "sounds": [
      {
        "name": "tardis:hums/tardis_hum_70",
        "stream": true
      }
    ]
  },
  "tardis_hum_80": {
    "subtitle": "subtitle.tardis.tardis_hum",
    "sounds": [
      {
        "name": "tardis:hums/tardis_hum_80",
        "stream": true
      }
    ]
  },
  "tardis_hum_copper": {
    "subtitle": "subtitle.tardis.tardis_hum",
    "sounds": [
      {
        "name": "tardis:hums/tardis_hum_copper",
        "stream": true
      }
    ]
  },
  "tardis_hum_coral": {
    "subtitle": "subtitle.tardis.tardis_hum",
    "sounds": [
      {
        "name": "tardis:hums/tardis_hum_coral",
        "stream": true
      }
    ]
  },
  "tardis_hum_toyota": {
    "subtitle": "subtitle.tardis.tardis_hum",
    "sounds": [
      {
        "name": "tardis:hums/tardis_hum_toyota",
        "stream": true
      }
    ]
  },
  "tardis_land": {
    "subtitle": "subtitle.tardis.tardis_land",
    "sounds": [
      "tardis:tardis/tardis_land"
    ]
  },
  "tardis_land_notification": {
    "subtitle": "subtitle.tardis.tardis_land_notification",
    "sounds": [
      "tardis:tardis/tardis_land_notification"
    ]
  },
  "tardis_power_up": {
    "subtitle": "subtitle.tardis.tardis_power_up",
    "sounds": [
      "tardis:tardis/tardis_power_up"
    ]
  },
  "tardis_shut_down": {
    "subtitle": "subtitle.tardis.tardis_shut_down",
    "sounds": [
      "tardis:tardis/tardis_shut_down"
    ]
  },
  "tardis_takeoff": {
    "subtitle": "subtitle.tardis.tardis_takeoff",
    "sounds": [
      "tardis:tardis/tardis_takeoff"
    ]
  },
  "telepathic_circuit": {
    "subtitle": "subtitle.tardis.telepathic_circuit",
    "sounds": [
      "tardis:tardis/console/telepathic_circuit"
    ]
  },
  "throttle": {
    "subtitle": "subtitle.tardis.throttle",
    "sounds": [
      "tardis:tardis/console/throttle"
    ]
  },
  "vm_button": {
    "subtitle": "subtitle.tardis.vm_button",
    "sounds": [
      "tardis:vm/vm_button"
    ]
  },
  "vm_teleport": {
    "subtitle": "subtitle.tardis.vm_teleport",
    "sounds": [
      "tardis:vm/vm_teleport"
    ]
  },
  "vm_teleport_dest": {
    "subtitle": "subtitle.tardis.vm_teleport",
    "sounds": [
      "tardis:vm/vm_teleport_dest"
    ]
  },
  "vortex_ambient_loop": {
    "subtitle": "subtitle.tardis.vortex_ambient_loop",
    "sounds": [
      {
        "name": "tardis:ambient/vortex_ambient_loop",
        "volume": 0.3,
        "stream": true
      }
    ]
  },
  "watch_malfunction": {
    "subtitle": "subtitle.tardis.watch_malfunction",
    "sounds": [
      "tardis:item/watch_malfunction"
    ]
  },
  "watch_tick": {
    "subtitle": "subtitle.tardis.watch_tick",
    "sounds": [
      "tardis:item/watch_tick"
    ]
  },
  "wood_door_close": {
    "subtitle": "subtitle.tardis.door_close",
    "sounds": [
      "tardis:tardis/wood_door_close"
    ]
  },
  "wood_door_open": {
    "subtitle": "subtitle.tardis.door_open",
    "sounds": [
      "tardis:tardis/wood_door_open"
    ]
  }
}