{
  "type": "normal",
  "text": "Time Ram Instigate Event. This is the first sub event of the Time Ram. To better explain these two sub events, let's consider the two pilots involved in the Time Ram, Pilot A and Pilot B. The Instigate event is sent to one of the pilots when a Time Ram occurs. Let's consider this pilot as Pilot A. To respond correctly to the Instigate event, Pilot A must successfully activate the Communicator, Throttle and Randomiser. If Pilot A fails to activate all three, Pilot A's timeship takes damage and crash lands. Pilot B's timeship will take damage but not crash. If Pilot A succeeds, the Time Ram Receive Event is sent to Pilot B. Pilot B's response will then determine both pilot's fates."
}