{
  "type": "normal",
  "text": "Exterior Properties Submenu. This menu holds exterior customization options for your timeship. The Exterior Animation function sets the type of animation to use for takeoff and landing at the exterior. The Exterior Variants sets the visual texture for the exterior. The Set Landing Code function sets the timeship's landing codes to allow it to land within particular transduction barriers."
}