{
  "type": "normal",
  "text": "This section explains the Tardis controls and their usage. For your specific capsule and it's layout, please place the manual item over different parts of the console to see highlights."
}